sim/top_wrapper/wave.vcd
$date
	Sun Nov 23 19:08:45 2025
$end
$version
	Icarus Verilog
$end
$timescale
	1ps
$end
$scope module tb_top_wrapper $end
$var wire 7 ! HEX5 [6:0] $end
$var wire 7 " HEX4 [6:0] $end
$var wire 7 # HEX3 [6:0] $end
$var wire 7 $ HEX2 [6:0] $end
$var wire 7 % HEX1 [6:0] $end
$var wire 7 & HEX0 [6:0] $end
$var reg 1 ' CLOCK_50 $end
$var reg 1 ( KEY0 $end
$var reg 1 ) KEY1 $end
$var reg 2 * SW [1:0] $end
$scope module dut $end
$var wire 1 ' CLOCK_50 $end
$var wire 7 + HEX0 [6:0] $end
$var wire 7 , HEX1 [6:0] $end
$var wire 7 - HEX2 [6:0] $end
$var wire 7 . HEX3 [6:0] $end
$var wire 7 / HEX4 [6:0] $end
$var wire 7 0 HEX5 [6:0] $end
$var wire 1 ( KEY0 $end
$var wire 1 ) KEY1 $end
$var wire 2 1 SW [1:0] $end
$var wire 1 2 reset $end
$var wire 1 3 step_pulse $end
$var wire 24 4 selected24 [23:0] $end
$var wire 4 5 nib5 [3:0] $end
$var wire 4 6 nib4 [3:0] $end
$var wire 4 7 nib3 [3:0] $end
$var wire 4 8 nib2 [3:0] $end
$var wire 4 9 nib1 [3:0] $end
$var wire 4 : nib0 [3:0] $end
$var wire 32 ; debug_PC [31:0] $end
$var wire 32 < debug_ALU [31:0] $end
$var reg 1 = s1 $end
$var reg 1 > s2 $end
$var reg 1 ? s_prev $end
$scope function font7 $end
$var reg 4 @ v [3:0] $end
$upscope $end
$scope module cpu $end
$var wire 32 A ALURes_out [31:0] $end
$var wire 32 B PC_out [31:0] $end
$var wire 1 3 clk $end
$var wire 1 2 reset $end
$var wire 1 C RUWr $end
$var wire 2 D RUDataWrSrc [1:0] $end
$var wire 32 E PCplus4 [31:0] $end
$var wire 32 F PC [31:0] $end
$var wire 1 G NextPCSrc $end
$var wire 32 H NextPC [31:0] $end
$var wire 32 I Instruction [31:0] $end
$var wire 3 J ImmSrc [2:0] $end
$var wire 32 K ImmExt [31:0] $end
$var wire 32 L DataRs2 [31:0] $end
$var wire 32 M DataRs1 [31:0] $end
$var wire 32 N DataRd [31:0] $end
$var wire 1 O DMWr $end
$var wire 3 P DMCtrl [2:0] $end
$var wire 5 Q BrOp [4:0] $end
$var wire 32 R ALU_B [31:0] $end
$var wire 32 S ALU_A [31:0] $end
$var wire 32 T ALURes [31:0] $end
$var wire 4 U ALUOp [3:0] $end
$var wire 1 V ALUBSrc $end
$var wire 1 W ALUASrc $end
$var reg 32 X RUDataWr [31:0] $end
$scope module ALU $end
$var wire 32 Y A [31:0] $end
$var wire 32 Z B [31:0] $end
$var wire 5 [ shamt [4:0] $end
$var wire 4 \ ALUOp [3:0] $end
$var reg 32 ] ALURes [31:0] $end
$upscope $end
$scope module BU $end
$var wire 32 ^ rs2 [31:0] $end
$var wire 32 _ rs1 [31:0] $end
$var wire 5 ` BrOp [4:0] $end
$var reg 1 G NextPCSrc $end
$upscope $end
$scope module CU $end
$var wire 3 a funct3 [2:0] $end
$var wire 7 b funct7 [6:0] $end
$var wire 7 c opcode [6:0] $end
$var reg 1 W ALUASrc $end
$var reg 1 V ALUBSrc $end
$var reg 4 d ALUOp [3:0] $end
$var reg 5 e BrOp [4:0] $end
$var reg 3 f DMCtrl [2:0] $end
$var reg 1 O DMWr $end
$var reg 3 g ImmSrc [2:0] $end
$var reg 2 h RUDataWrSrc [1:0] $end
$var reg 1 C RUWr $end
$upscope $end
$scope module DMEM $end
$var wire 32 i Address [31:0] $end
$var wire 3 j DMCtrl [2:0] $end
$var wire 1 O DMWr $end
$var wire 1 3 clk $end
$var wire 32 k temp_word [31:0] $end
$var wire 8 l word_index [7:0] $end
$var wire 5 m half_word_offset_start [4:0] $end
$var wire 5 n byte_offset_start [4:0] $end
$var wire 32 o DataWr [31:0] $end
$var reg 32 p DataRd [31:0] $end
$scope begin $unm_blk_21 $end
$var integer 32 q i [31:0] $end
$upscope $end
$upscope $end
$scope module IMEM $end
$var wire 32 r Instruction [31:0] $end
$var wire 32 s Address [31:0] $end
$upscope $end
$scope module IMM $end
$var wire 3 t ImmSrc [2:0] $end
$var wire 25 u Instr [24:0] $end
$var wire 32 v imm_u [31:0] $end
$var wire 32 w imm_s [31:0] $end
$var wire 32 x imm_j [31:0] $end
$var wire 32 y imm_i [31:0] $end
$var wire 32 z imm_b [31:0] $end
$var wire 32 { ImmExt [31:0] $end
$upscope $end
$scope module PCU $end
$var wire 32 | NextPC [31:0] $end
$var wire 1 3 clk $end
$var wire 1 2 reset $end
$var reg 32 } PC [31:0] $end
$upscope $end
$scope module RU $end
$var wire 32 ~ DataWr [31:0] $end
$var wire 1 C RUWr $end
$var wire 1 3 clk $end
$var wire 5 !" rd [4:0] $end
$var wire 5 "" rs1 [4:0] $end
$var wire 5 #" rs2 [4:0] $end
$var wire 32 $" RU_rs2 [31:0] $end
$var wire 32 %" RU_rs1 [31:0] $end
$upscope $end
$upscope $end
$upscope $end
$upscope $end
$enddefinitions $end
$comment Show the parameter values. $end
$dumpall
$end
#0
$dumpvars
b0 %"
b0 $"
b0 #"
b0 ""
b10 !"
b10000000000 ~
b0 }
b100 |
b10000000000 {
b10000000010 z
b10000000000 y
b10000000000 x
b10000000010 w
b1000000000000000000000000000000 v
b100000000000000000000010 u
b0 t
b0 s
b1000000000000000000000100010011 r
b100000000 q
b10000 p
b0 o
b0 n
b0 m
b0 l
b10000 k
b0 j
b10000000000 i
b0 h
b0 g
b0 f
b0 e
b0 d
b10011 c
b100000 b
b0 a
b0 `
b0 _
b0 ^
b10000000000 ]
b0 \
b0 [
b10000000000 Z
b0 Y
b10000000000 X
0W
1V
b0 U
b10000000000 T
b0 S
b10000000000 R
b0 Q
b0 P
0O
b10000 N
b0 M
b0 L
b10000000000 K
b0 J
b1000000000000000000000100010011 I
b100 H
0G
b0 F
b100 E
b0 D
1C
b0 B
b10000000000 A
b0 @
x?
x>
x=
b10000000000 <
b0 ;
b0 :
b0 9
b0 8
b0 7
b0 6
b0 5
b0 4
x3
02
b0 1
b1 0
b1 /
b1 .
b1 -
b1 ,
b1 +
b0 *
1)
1(
0'
b1 &
b1 %
b1 $
b1 #
b1 "
b1 !
$end
#10000
0=
1'
#20000
0'
#30000
03
0>
1'
#40000
0'
#50000
0?
12
1'
0(
#60000
0'
#70000
1'
#80000
0'
#90000
1=
02
1'
0)
b1 *
b1 1
1(
#100000
0'
#110000
b0 N
b0 p
b0 k
b10 l
b1000 X
b1000 ~
b1000 <
b1000 A
b1000 T
b1000 ]
b1000 i
b1000 [
b1000 R
b1000 Z
b1001100 &
b1001100 +
b1000 K
b1000 {
b100 @
bx L
bx ^
bx o
bx $"
b1000 y
b1010 w
b1010 z
b100000000000000000000000 v
b1000 x
1V
1C
b100 :
b1010 !"
b1000 #"
b10000000000001010 u
b0 b
b100 4
b100000000000010100010011 I
b100000000000010100010011 r
b1000 H
b1000 |
b1000 E
b100 ;
b100 B
b100 F
b100 s
b100 }
13
1>
0=
1'
1)
#120000
0'
#130000
03
1?
0>
1'
#140000
0'
#150000
0?
1'
#160000
b0 &
b0 +
b1000 @
b1000 :
b1000 4
0'
0)
b10 *
b10 1
#170000
1=
1'
#180000
0'
1)
#190000
b1001111 %
b1001111 ,
b0 &
b0 +
b1 @
b1 9
b1000 :
b11000 4
b110 l
b10000 [
b10000 R
b10000 Z
b11000 <
b11000 A
b11000 T
b11000 ]
b11000 i
1G
b10000 K
b10000 {
b1000 S
b1000 Y
b1100 X
b1100 ~
b10000 y
b1 w
b100000000000 z
b1000000000000000000000000 v
b10000 x
b10000 Q
b10000 `
b10000 e
b110 J
b110 g
b110 t
1W
b10 D
b10 h
1V
1C
b1 !"
b10000 #"
b100000000000000001 u
b1101111 c
b1000000000000000011101111 I
b1000000000000000011101111 r
b11000 H
b11000 |
b1100 E
b1000 ;
b1000 B
b1000 F
b1000 s
b1000 }
13
1>
0=
1'
#200000
0'
#210000
03
1?
0>
1'
#220000
0'
#230000
0?
1=
b1 %
b1 ,
b0 @
b0 9
b1000 4
1'
0)
b1 *
b1 1
#240000
0'
#250000
b10101010101110111100110011011101 N
b10101010101110111100110011011101 p
b10101010101110111100110011011101 k
b100 [
b100 R
b100 Z
b100 K
b100 {
b1001111 %
b1001111 ,
0G
b1 l
b1 @
b1100 L
b1100 ^
b1100 o
b1100 $"
b10000000000 M
b10000000000 _
b10000000000 %"
b1 y
b100 w
b100 z
b100010010000000000000 v
b10010100000000000 x
b10 P
b10 f
b10 j
1O
b0 Q
b0 `
b0 e
b1 J
b1 g
b1 t
1V
0W
b0 D
b0 h
0C
b11100 H
b11100 |
b1 9
b100 !"
b1 #"
b10 ""
b10001001000100 u
b10 a
b100011 c
b10000000100 <
b10000000100 A
b10000000100 T
b10000000100 ]
b10000000100 i
b11000 4
b100010010001000100011 I
b100010010001000100011 r
b10000000100 X
b10000000100 ~
b10000000000 S
b10000000000 Y
b11100 E
b11000 ;
b11000 B
b11000 F
b11000 s
b11000 }
13
1>
0=
1'
1)
#260000
0'
#270000
03
1?
0>
1'
#280000
0'
#290000
0?
1'
#300000
b1001100 $
b1001100 -
b1 %
b1 ,
b1001100 &
b1001100 +
b100 @
b100 8
b0 9
b100 :
b10000000100 4
0'
0)
b10 *
b10 1
#310000
1=
1'
#320000
0'
1)
#330000
b1 &
b1 +
b0 @
b0 :
b10000000000 4
b0 l
b10000000000 X
b10000000000 ~
b10000000000 <
b10000000000 A
b10000000000 T
b10000000000 ]
b10000000000 i
b0 [
b0 R
b0 Z
b0 K
b0 {
bx L
bx ^
bx o
bx $"
b1000 y
b0 w
b0 z
b100000010010000000000000 v
b10010000000001000 x
b0 !"
b1000 #"
b10000001001000000 u
b10000 N
b10000 p
b100000010010000000100011 I
b100000010010000000100011 r
b100000 H
b100000 |
b10000 k
b100000 E
b11100 ;
b11100 B
b11100 F
b11100 s
b11100 }
13
1>
0=
1'
#340000
0'
#350000
03
1?
0>
1'
#360000
0'
#370000
0?
1=
b1 $
b1 -
b1001111 %
b1001111 ,
b110001 &
b110001 +
b0 @
b0 8
b1 9
b1100 :
b11100 4
1'
0)
b1 *
b1 1
#380000
0'
#390000
b10 l
b1000 X
b1000 ~
b1000 <
b1000 A
b1000 T
b1000 ]
b1000 i
b10010 %
b10010 ,
b1 &
b1 +
b1000 S
b1000 Y
b10 @
b0 L
b0 ^
b0 o
b0 $"
b1000 M
b1000 _
b1000 %"
b0 y
b1000 w
b1000 z
b1010000000000000000 v
b1010000000000000000 x
1C
b0 J
b0 g
b0 t
1V
b0 P
b0 f
b0 j
0O
b10 9
b0 :
b1000 !"
b0 #"
b1010 ""
b101000001000 u
b0 a
b10011 c
b100000 4
b1010000010000010011 I
b1010000010000010011 r
b100100 H
b100100 |
b0 N
b0 p
b100100 E
b100000 ;
b100000 B
b100000 F
b100000 s
b100000 }
b0 k
13
1>
0=
1'
1)
#400000
0'
#410000
03
1?
0>
1'
#420000
0'
#430000
0?
1'
#440000
b1 %
b1 ,
b0 &
b0 +
b0 @
b0 9
b1000 :
b1000 4
0'
0)
b10 *
b10 1
#450000
1=
1'
#460000
0'
1)
#470000
b1001111 &
b1001111 +
b1 @
b1 :
b1 4
bx N
bx p
bx k
b0 l
b1000 n
b1 X
b1 ~
b1 [
b1 <
b1 A
b1 T
b1 ]
b1 i
b1 R
b1 Z
b0 S
b0 Y
b1 K
b1 {
b1100 L
b1100 ^
b1100 o
b1100 $"
b0 M
b0 _
b0 %"
b1 y
b101 w
b100000000100 z
b100000000000000000000 v
b100000000000 x
b101 !"
b1 #"
b0 ""
b10000000000101 u
b100000000001010010011 I
b100000000001010010011 r
b101000 H
b101000 |
b101000 E
b100100 ;
b100100 B
b100100 F
b100100 s
b100100 }
13
1>
0=
1'
#480000
0'
#490000
03
1?
0>
1'
#500000
0'
#510000
0?
1=
b10010 %
b10010 ,
b1001100 &
b1001100 +
b10 @
b10 9
b100 :
b100100 4
1'
0)
b1 *
b1 1
#520000
0'
#530000
b0 &
b0 +
b1000 @
b110 w
b110 z
b1000 :
b110 !"
b10000000000110 u
b101000 4
b100000000001100010011 I
b100000000001100010011 r
b101100 H
b101100 |
b101100 E
b101000 ;
b101000 B
b101000 F
b101000 s
b101000 }
13
1>
0=
1'
1)
#540000
0'
#550000
03
1?
0>
1'
#560000
0'
#570000
0?
1'
#580000
b1 %
b1 ,
b1001111 &
b1001111 +
b0 @
b0 9
b1 :
b1 4
0'
0)
b10 *
b10 1
#590000
1=
1'
#600000
0'
1)
#610000
b1001100 %
b1001100 ,
b0 &
b0 +
b100 @
b100 9
b1000 :
b0 N
b0 p
b1001000 4
b0 n
b0 k
b10010 l
b11100 [
b1001000 X
b1001000 ~
b11100 R
b11100 Z
b1001000 <
b1001000 A
b1001000 T
b1001000 ]
b1001000 i
b11100 K
b11100 {
b101100 S
b101100 Y
b1000 L
b1000 ^
b1000 o
b1000 $"
b1 M
b1 _
b1 %"
b1000 y
b11100 w
b11100 z
b100000110101000000000000 v
b110101000000001000 x
b1101 Q
b1101 `
b1101 e
b101 J
b101 g
b101 t
1W
1V
0C
b11100 !"
b1000 #"
b110 ""
b10000011010111100 u
b101 a
b1100011 c
b100000110101111001100011 I
b100000110101111001100011 r
b110000 H
b110000 |
b110000 E
b101100 ;
b101100 B
b101100 F
b101100 s
b101100 }
13
1>
0=
1'
#620000
0'
#630000
03
1?
0>
1'
#640000
0'
#650000
0?
1=
b10010 %
b10010 ,
b110001 &
b110001 +
b10 @
b10 9
b1100 :
b101100 4
1'
0)
b1 *
b1 1
#660000
0'
#670000
bx N
bx p
bx k
b0 [
b1000 n
b0 R
b0 Z
b110 %
b110 ,
b1 &
b1 +
b0 K
b0 {
b0 l
b11 @
b0 L
b0 ^
b0 o
b0 $"
b0 y
b1010 w
b1010 z
b101000000000000000 v
b101000000000000000 x
1C
b0 Q
b0 `
b0 e
b0 J
b0 g
b0 t
1V
0W
b1 X
b1 ~
b11 9
b0 :
b1010 !"
b0 #"
b101 ""
b10100001010 u
b0 a
b10011 c
b1 <
b1 A
b1 T
b1 ]
b1 i
b110000 4
b101000010100010011 I
b101000010100010011 r
b110100 H
b110100 |
b1 S
b1 Y
b110100 E
b110000 ;
b110000 B
b110000 F
b110000 s
b110000 }
13
1>
0=
1'
1)
#680000
0'
#690000
03
1?
0>
1'
#700000
0'
#710000
0?
1'
#720000
b1 %
b1 ,
b1001111 &
b1001111 +
b0 @
b0 9
b1 :
b1 4
0'
0)
b10 *
b10 1
#730000
1=
1'
#740000
0'
1)
#750000
b0 &
b0 +
b1000 @
b1000 :
b0 N
b0 p
b1000 4
b0 k
b10 l
b0 n
b1000 X
b1000 ~
b1000 <
b1000 A
b1000 T
b1000 ]
b1000 i
b1000 S
b1000 Y
b1000 M
b1000 _
b1000 %"
b1011 w
b100000001010 z
b1000000000000000000 v
b1000000000000000000 x
b1011 !"
b1000 ""
b100000001011 u
b1000000010110010011 I
b1000000010110010011 r
b111000 H
b111000 |
b111000 E
b110100 ;
b110100 B
b110100 F
b110100 s
b110100 }
13
1>
0=
1'
#760000
0'
#770000
03
1?
0>
1'
#780000
0'
#790000
0?
1=
b110 %
b110 ,
b1001100 &
b1001100 +
b11 @
b11 9
b100 :
b110100 4
1'
0)
b1 *
b1 1
#800000
0'
#810000
b100 [
b100100 R
b100100 Z
b100100 K
b100100 {
b10111 l
b1011100 <
b1011100 A
b1011100 T
b1011100 ]
b1011100 i
b0 &
b0 +
1G
b111000 S
b111000 Y
b111100 X
b111100 ~
b1000 @
bx L
bx ^
bx o
bx $"
b0 M
b0 _
b0 %"
b100100 y
b100001 w
b100000100000 z
b10010000000000000000000000 v
b100100 x
b10000 Q
b10000 `
b10000 e
b110 J
b110 g
b110 t
1W
b10 D
b10 h
1V
1C
b1000 :
b1 !"
b100 #"
b0 ""
b1001000000000000001 u
b1 b
b1101111 c
b111000 4
b10010000000000000011101111 I
b10010000000000000011101111 r
b1011100 H
b1011100 |
b111100 E
b111000 ;
b111000 B
b111000 F
b111000 s
b111000 }
13
1>
0=
1'
1)
#820000
0'
#830000
03
1?
0>
1'
#840000
0'
#850000
0?
1'
#860000
b100100 %
b100100 ,
b110001 &
b110001 +
b101 @
b101 9
b1100 :
b1011100 4
0'
0)
b10 *
b10 1
#870000
1=
1'
#880000
0'
1)
#890000
bx N
bx p
bx k
b1 %
b1 ,
b1 &
b1 +
b0 @
b0 [
b0 9
b0 :
b0 R
b0 Z
b0 4
0G
b0 K
b0 {
b0 l
b0 L
b0 ^
b0 o
b0 $"
b0 y
b101 w
b100000000100 z
b0 v
b0 x
b0 Q
b0 `
b0 e
b0 J
b0 g
b0 t
1V
0W
b0 D
b0 h
1C
b1100000 H
b1100000 |
b101 !"
b0 #"
b101 u
b0 b
b10011 c
b0 <
b0 A
b0 T
b0 ]
b0 i
b1010010011 I
b1010010011 r
b0 X
b0 ~
b0 S
b0 Y
b1100000 E
b1011100 ;
b1011100 B
b1011100 F
b1011100 s
b1011100 }
13
1>
0=
1'
#900000
0'
#910000
03
1?
0>
1'
#920000
0'
#930000
0?
1=
b100100 %
b100100 ,
b110001 &
b110001 +
b101 @
b101 9
b1100 :
b1011100 4
1'
0)
b1 *
b1 1
#940000
0'
#950000
b0 N
b0 p
b0 k
b10 l
b1000 X
b1000 ~
b1000 <
b1000 A
b1000 T
b1000 ]
b1000 i
b100000 %
b100000 ,
b1 &
b1 +
b1000 S
b1000 Y
b110 @
b1000 M
b1000 _
b1000 %"
b110 w
b110 z
b1011000000000000000 v
b1011000000000000000 x
b110 9
b0 :
b110 !"
b1011 ""
b101100000110 u
b1100000 4
b1011000001100010011 I
b1011000001100010011 r
b1100100 H
b1100100 |
b1100100 E
b1100000 ;
b1100000 B
b1100000 F
b1100000 s
b1100000 }
13
1>
0=
1'
1)
#960000
0'
#970000
03
1?
0>
1'
#980000
0'
#990000
0?
1'
#1000000
b1 %
b1 ,
b0 &
b0 +
b0 @
b0 9
b1000 :
b1000 4
0'
0)
b10 *
b10 1
#1010000
1=
1'
#1020000
0'
1)
#1030000
b1111 %
b1111 ,
b1001100 &
b1001100 +
b111 @
b111 9
b100 :
b10000 [
b1110100 4
b10000 R
b10000 Z
b11101 l
b10000 K
b10000 {
b1110100 X
b1110100 ~
b1110100 <
b1110100 A
b1110100 T
b1110100 ]
b1110100 i
b1100100 S
b1100100 Y
b10000 w
b10000 z
b110000000000000000 v
b110000000000000000 x
b1000 Q
b1000 `
b1000 e
b101 J
b101 g
b101 t
1W
1V
0C
b10000 !"
b110 ""
b11000010000 u
b1100011 c
b110000100001100011 I
b110000100001100011 r
b1101000 H
b1101000 |
b1101000 E
b1100100 ;
b1100100 B
b1100100 F
b1100100 s
b1100100 }
13
1>
0=
1'
#1040000
0'
#1050000
03
1?
0>
1'
#1060000
0'
#1070000
0?
1=
b100000 %
b100000 ,
b110 @
b110 9
b1100100 4
1'
0)
b1 *
b1 1
#1080000
0'
#1090000
bx N
bx p
bx k
b1000 n
b1 [
b0 &
b0 +
b1010 K
b1010 {
b1 R
b1 Z
b0 l
b1000 @
b1 L
b1 ^
b1 o
b1 $"
b0 M
b0 _
b0 %"
b1010 y
b101 w
b100000000100 z
b101000101000000000000000 v
b101000000000001010 x
1C
b0 Q
b0 `
b0 e
b0 J
b0 g
b0 t
0V
0W
b1 X
b1 ~
b1000 :
b101 !"
b1010 #"
b101 ""
b10100010100000101 u
b110011 c
b1 <
b1 A
b1 T
b1 ]
b1 i
b1101000 4
b101000101000001010110011 I
b101000101000001010110011 r
b1101100 H
b1101100 |
b0 S
b0 Y
b1101100 E
b1101000 ;
b1101000 B
b1101000 F
b1101000 s
b1101000 }
13
1>
0=
1'
1)
#1100000
0'
#1110000
03
1?
0>
1'
#1120000
0'
#1130000
0?
1'
#1140000
b1 %
b1 ,
b1001111 &
b1001111 +
b0 @
b0 9
b1 :
b1 4
0'
0)
b10 *
b10 1
#1150000
1=
1'
#1160000
0'
1)
#1170000
b1 %
b1 ,
b1111 &
b1111 +
b0 9
b0 @
b0 N
b0 p
b111 :
b1100 k
b1 l
b111 4
b10000 m
b11111 [
b11000 n
b111 X
b111 ~
b11111111111111111111111111111111 K
b11111111111111111111111111111111 {
b11111111111111111111111111111111 R
b11111111111111111111111111111111 Z
b111 <
b111 A
b111 T
b111 ]
b111 i
bx L
bx ^
bx o
bx $"
b11111111111111111111111111111111 y
b1111111111111111111111111100110 w
b11111111111111111111011111100110 z
b11111111111100110000000000000000 v
b11111111111100110000111111111110 x
1V
1C
b1000 S
b1000 Y
b110 !"
b11111 #"
b110 ""
b1111111111110011000000110 u
b1111111 b
b10011 c
b1000 M
b1000 _
b1000 %"
b11111111111100110000001100010011 I
b11111111111100110000001100010011 r
b1110000 H
b1110000 |
b1110000 E
b1101100 ;
b1101100 B
b1101100 F
b1101100 s
b1101100 }
13
1>
0=
1'
#1180000
0'
#1190000
03
1?
0>
1'
#1200000
0'
#1210000
0?
1=
b100000 %
b100000 ,
b110001 &
b110001 +
b110 @
b110 9
b1100 :
b1101100 4
1'
0)
b1 *
b1 1
#1220000
0'
#1230000
b0 m
b0 k
b11001 l
b10100 [
b11111111111111111111111111110100 R
b11111111111111111111111111110100 Z
b1111 %
b1111 ,
b1 &
b1 +
1G
b11111111111111111111111111110100 K
b11111111111111111111111111110100 {
b111 @
b0 n
b1110100 X
b1110100 ~
b11111111111111111111111111110101 y
b1111111111111111111111111100000 w
b11111111111111111111011111100000 z
b11111111010111111111000000000000 v
b11111111111111111111111111110100 x
b10000 Q
b10000 `
b10000 e
b110 J
b110 g
b110 t
1W
b10 D
b10 h
1V
1C
b111 9
b0 :
b1100100 <
b1100100 A
b1100100 T
b1100100 ]
b1100100 i
b0 !"
b10101 #"
b11111 ""
b1111111101011111111100000 u
b111 a
b1101111 c
b1110000 4
b1110000 S
b1110000 Y
b11111111010111111111000001101111 I
b11111111010111111111000001101111 r
b1100100 H
b1100100 |
bx M
bx _
bx %"
b1110100 E
b1110000 ;
b1110000 B
b1110000 F
b1110000 s
b1110000 }
13
1>
0=
1'
1)
#1240000
0'
#1250000
03
1?
0>
1'
#1260000
0'
#1270000
0?
1'
#1280000
b100000 %
b100000 ,
b1001100 &
b1001100 +
b110 @
b110 9
b100 :
b1100100 4
0'
0)
b10 *
b10 1
#1290000
1=
1'
#1300000
0'
1)
#1310000
b10000 [
b1111 %
b1111 ,
b1001100 &
b1001100 +
b10000 R
b10000 Z
b111 @
b10000 K
b10000 {
b111 9
b100 :
b1110100 4
0G
b11101 l
b0 L
b0 ^
b0 o
b0 $"
b111 M
b111 _
b111 %"
b0 y
b10000 w
b10000 z
b110000000000000000 v
b110000000000000000 x
b1000 Q
b1000 `
b1000 e
b101 J
b101 g
b101 t
1V
1W
b0 D
b0 h
0C
b1101000 H
b1101000 |
b10000 !"
b0 #"
b110 ""
b11000010000 u
b0 b
b0 a
b1100011 c
b1110100 <
b1110100 A
b1110100 T
b1110100 ]
b1110100 i
b110000100001100011 I
b110000100001100011 r
b1110100 X
b1110100 ~
b1100100 S
b1100100 Y
b1101000 E
b1100100 ;
b1100100 B
b1100100 F
b1100100 s
b1100100 }
13
1>
0=
1'
#1320000
0'
#1330000
03
1?
0>
1'
#1340000
0'
#1350000
0?
1=
b100000 %
b100000 ,
b110 @
b110 9
b1100100 4
1'
0)
b1 *
b1 1
#1360000
0'
#1370000
bx N
bx p
b10000 m
bx k
b10000 n
b1 [
b0 &
b0 +
b1010 K
b1010 {
b1 R
b1 Z
b0 l
b1000 @
b1 L
b1 ^
b1 o
b1 $"
b1 M
b1 _
b1 %"
b1010 y
b101 w
b100000000100 z
b101000101000000000000000 v
b101000000000001010 x
1C
b0 Q
b0 `
b0 e
b0 J
b0 g
b0 t
0V
0W
b10 X
b10 ~
b1000 :
b101 !"
b1010 #"
b101 ""
b10100010100000101 u
b110011 c
b10 <
b10 A
b10 T
b10 ]
b10 i
b1101000 4
b101000101000001010110011 I
b101000101000001010110011 r
b1101100 H
b1101100 |
b1 S
b1 Y
b1101100 E
b1101000 ;
b1101000 B
b1101000 F
b1101000 s
b1101000 }
13
1>
0=
1'
1)
#1380000
0'
#1390000
03
1?
0>
1'
#1400000
0'
#1410000
0?
1'
#1420000
b1 %
b1 ,
b10010 &
b10010 +
b0 @
b0 9
b10 :
b10 4
0'
0)
b10 *
b10 1
#1430000
1=
1'
#1440000
0'
1)
#1450000
b1 %
b1 ,
b100000 &
b100000 +
b0 9
b0 @
b0 N
b0 p
b110 :
b1100 k
b1 l
b10000 m
b110 4
b11111 [
b10000 n
b110 X
b110 ~
b11111111111111111111111111111111 K
b11111111111111111111111111111111 {
b11111111111111111111111111111111 R
b11111111111111111111111111111111 Z
b110 <
b110 A
b110 T
b110 ]
b110 i
bx L
bx ^
bx o
bx $"
b11111111111111111111111111111111 y
b1111111111111111111111111100110 w
b11111111111111111111011111100110 z
b11111111111100110000000000000000 v
b11111111111100110000111111111110 x
1V
1C
b111 S
b111 Y
b110 !"
b11111 #"
b110 ""
b1111111111110011000000110 u
b1111111 b
b10011 c
b111 M
b111 _
b111 %"
b11111111111100110000001100010011 I
b11111111111100110000001100010011 r
b1110000 H
b1110000 |
b1110000 E
b1101100 ;
b1101100 B
b1101100 F
b1101100 s
b1101100 }
13
1>
0=
1'
#1460000
0'
#1470000
03
1?
0>
1'
#1480000
0'
#1490000
0?
1'
