sim/riscv/wave.vcd
$date
	Sun Nov 23 19:56:01 2025
$end
$version
	Icarus Verilog
$end
$timescale
	1ps
$end
$scope module riscv_tb $end
$var wire 32 ! PC_out [31:0] $end
$var wire 32 " ALURes_out [31:0] $end
$var reg 1 # clk $end
$var reg 1 $ reset $end
$scope module dut $end
$var wire 32 % ALURes_out [31:0] $end
$var wire 32 & PC_out [31:0] $end
$var wire 1 # clk $end
$var wire 1 $ reset $end
$var wire 1 ' RUWr $end
$var wire 2 ( RUDataWrSrc [1:0] $end
$var wire 32 ) PCplus4 [31:0] $end
$var wire 32 * PC [31:0] $end
$var wire 1 + NextPCSrc $end
$var wire 32 , NextPC [31:0] $end
$var wire 32 - Instruction [31:0] $end
$var wire 3 . ImmSrc [2:0] $end
$var wire 32 / ImmExt [31:0] $end
$var wire 32 0 DataRs2 [31:0] $end
$var wire 32 1 DataRs1 [31:0] $end
$var wire 32 2 DataRd [31:0] $end
$var wire 1 3 DMWr $end
$var wire 3 4 DMCtrl [2:0] $end
$var wire 5 5 BrOp [4:0] $end
$var wire 32 6 ALU_B [31:0] $end
$var wire 32 7 ALU_A [31:0] $end
$var wire 32 8 ALURes [31:0] $end
$var wire 4 9 ALUOp [3:0] $end
$var wire 1 : ALUBSrc $end
$var wire 1 ; ALUASrc $end
$var reg 32 < RUDataWr [31:0] $end
$scope module ALU $end
$var wire 32 = A [31:0] $end
$var wire 32 > B [31:0] $end
$var wire 5 ? shamt [4:0] $end
$var wire 4 @ ALUOp [3:0] $end
$var reg 32 A ALURes [31:0] $end
$upscope $end
$scope module BU $end
$var wire 32 B rs2 [31:0] $end
$var wire 32 C rs1 [31:0] $end
$var wire 5 D BrOp [4:0] $end
$var reg 1 + NextPCSrc $end
$upscope $end
$scope module CU $end
$var wire 3 E funct3 [2:0] $end
$var wire 7 F funct7 [6:0] $end
$var wire 7 G opcode [6:0] $end
$var reg 1 ; ALUASrc $end
$var reg 1 : ALUBSrc $end
$var reg 4 H ALUOp [3:0] $end
$var reg 5 I BrOp [4:0] $end
$var reg 3 J DMCtrl [2:0] $end
$var reg 1 3 DMWr $end
$var reg 3 K ImmSrc [2:0] $end
$var reg 2 L RUDataWrSrc [1:0] $end
$var reg 1 ' RUWr $end
$upscope $end
$scope module DMEM $end
$var wire 32 M Address [31:0] $end
$var wire 3 N DMCtrl [2:0] $end
$var wire 1 3 DMWr $end
$var wire 1 # clk $end
$var wire 32 O temp_word [31:0] $end
$var wire 8 P word_index [7:0] $end
$var wire 5 Q half_word_offset_start [4:0] $end
$var wire 5 R byte_offset_start [4:0] $end
$var wire 32 S DataWr [31:0] $end
$var reg 32 T DataRd [31:0] $end
$scope begin $unm_blk_19 $end
$var integer 32 U i [31:0] $end
$upscope $end
$upscope $end
$scope module IMEM $end
$var wire 32 V Instruction [31:0] $end
$var wire 32 W Address [31:0] $end
$upscope $end
$scope module IMM $end
$var wire 3 X ImmSrc [2:0] $end
$var wire 25 Y Instr [24:0] $end
$var wire 32 Z imm_u [31:0] $end
$var wire 32 [ imm_s [31:0] $end
$var wire 32 \ imm_j [31:0] $end
$var wire 32 ] imm_i [31:0] $end
$var wire 32 ^ imm_b [31:0] $end
$var wire 32 _ ImmExt [31:0] $end
$upscope $end
$scope module PCU $end
$var wire 32 ` NextPC [31:0] $end
$var wire 1 # clk $end
$var wire 1 $ reset $end
$var reg 32 a PC [31:0] $end
$upscope $end
$scope module RU $end
$var wire 32 b DataWr [31:0] $end
$var wire 1 ' RUWr $end
$var wire 1 # clk $end
$var wire 5 c rd [4:0] $end
$var wire 5 d rs1 [4:0] $end
$var wire 5 e rs2 [4:0] $end
$var wire 32 f RU_rs2 [31:0] $end
$var wire 32 g RU_rs1 [31:0] $end
$upscope $end
$upscope $end
$upscope $end
$enddefinitions $end
$comment Show the parameter values. $end
$dumpall
$end
#0
$dumpvars
b0 g
b0 f
b0 e
b0 d
b10 c
b10000000000 b
b0 a
b100 `
b10000000000 _
b10000000010 ^
b10000000000 ]
b10000000000 \
b10000000010 [
b1000000000000000000000000000000 Z
b100000000000000000000010 Y
b0 X
b0 W
b1000000000000000000000100010011 V
b100000000 U
b10000 T
b0 S
b0 R
b0 Q
b0 P
b10000 O
b0 N
b10000000000 M
b0 L
b0 K
b0 J
b0 I
b0 H
b10011 G
b100000 F
b0 E
b0 D
b0 C
b0 B
b10000000000 A
b0 @
b0 ?
b10000000000 >
b0 =
b10000000000 <
0;
1:
b0 9
b10000000000 8
b0 7
b10000000000 6
b0 5
b0 4
03
b10000 2
b0 1
b0 0
b10000000000 /
b0 .
b1000000000000000000000100010011 -
b100 ,
0+
b0 *
b100 )
b0 (
1'
b0 &
b10000000000 %
1$
0#
b10000000000 "
b0 !
$end
#5000
1#
#10000
0#
#15000
1#
#20000
0#
0$
#25000
b0 2
b0 T
b0 O
b10 P
b1000 <
b1000 b
b1000 "
b1000 %
b1000 8
b1000 A
b1000 M
b1000 ?
b1000 6
b1000 >
b1000 /
b1000 _
bx 0
bx B
bx S
bx f
b1000 ]
b1010 [
b1010 ^
b100000000000000000000000 Z
b1000 \
1:
1'
b1010 c
b1000 e
b10000000000001010 Y
b0 F
b100000000000010100010011 -
b100000000000010100010011 V
b1000 ,
b1000 `
b1000 )
b100 !
b100 &
b100 *
b100 W
b100 a
1#
#30000
0#
#35000
b110 P
b10000 ?
b10000 6
b10000 >
b11000 "
b11000 %
b11000 8
b11000 A
b11000 M
1+
b10000 /
b10000 _
b1000 7
b1000 =
b1100 <
b1100 b
b10000 ]
b1 [
b100000000000 ^
b1000000000000000000000000 Z
b10000 \
b10000 5
b10000 D
b10000 I
b110 .
b110 K
b110 X
1;
b10 (
b10 L
1:
1'
b1 c
b10000 e
b100000000000000001 Y
b1101111 G
b1000000000000000011101111 -
b1000000000000000011101111 V
b11000 ,
b11000 `
b1100 )
b1000 !
b1000 &
b1000 *
b1000 W
b1000 a
1#
#40000
0#
#45000
b10101010101110111100110011011101 2
b10101010101110111100110011011101 T
b10101010101110111100110011011101 O
b100 ?
b100 6
b100 >
b100 /
b100 _
0+
b1 P
b1100 0
b1100 B
b1100 S
b1100 f
b10000000000 1
b10000000000 C
b10000000000 g
b1 ]
b100 [
b100 ^
b100010010000000000000 Z
b10010100000000000 \
b10 4
b10 J
b10 N
13
b0 5
b0 D
b0 I
b1 .
b1 K
b1 X
1:
0;
b0 (
b0 L
0'
b11100 ,
b11100 `
b100 c
b1 e
b10 d
b10001001000100 Y
b10 E
b100011 G
b10000000100 "
b10000000100 %
b10000000100 8
b10000000100 A
b10000000100 M
b100010010001000100011 -
b100010010001000100011 V
b10000000100 <
b10000000100 b
b10000000000 7
b10000000000 =
b11100 )
b11000 !
b11000 &
b11000 *
b11000 W
b11000 a
1#
#50000
0#
#55000
b0 P
b10000000000 <
b10000000000 b
b10000000000 "
b10000000000 %
b10000000000 8
b10000000000 A
b10000000000 M
b0 ?
b0 6
b0 >
b0 /
b0 _
bx 0
bx B
bx S
bx f
b1000 ]
b0 [
b0 ^
b100000010010000000000000 Z
b10010000000001000 \
b0 c
b1000 e
b10000001001000000 Y
b10000 2
b10000 T
b100000010010000000100011 -
b100000010010000000100011 V
b100000 ,
b100000 `
b10000 O
b100000 )
b11100 !
b11100 &
b11100 *
b11100 W
b11100 a
1#
#60000
0#
#65000
b10 P
b1000 <
b1000 b
b1000 "
b1000 %
b1000 8
b1000 A
b1000 M
b1000 7
b1000 =
b0 0
b0 B
b0 S
b0 f
b1000 1
b1000 C
b1000 g
b0 ]
b1000 [
b1000 ^
b1010000000000000000 Z
b1010000000000000000 \
1'
b0 .
b0 K
b0 X
1:
b0 4
b0 J
b0 N
03
b1000 c
b0 e
b1010 d
b101000001000 Y
b0 E
b10011 G
b1010000010000010011 -
b1010000010000010011 V
b100100 ,
b100100 `
b0 2
b0 T
b100100 )
b100000 !
b100000 &
b100000 *
b100000 W
b100000 a
b0 O
1#
#70000
0#
#75000
bx 2
bx T
bx O
b0 P
b1000 R
b1 <
b1 b
b1 ?
b1 "
b1 %
b1 8
b1 A
b1 M
b1 6
b1 >
b0 7
b0 =
b1 /
b1 _
b1100 0
b1100 B
b1100 S
b1100 f
b0 1
b0 C
b0 g
b1 ]
b101 [
b100000000100 ^
b100000000000000000000 Z
b100000000000 \
b101 c
b1 e
b0 d
b10000000000101 Y
b100000000001010010011 -
b100000000001010010011 V
b101000 ,
b101000 `
b101000 )
b100100 !
b100100 &
b100100 *
b100100 W
b100100 a
1#
#80000
0#
#85000
b110 [
b110 ^
b110 c
b10000000000110 Y
b100000000001100010011 -
b100000000001100010011 V
b101100 ,
b101100 `
b101100 )
b101000 !
b101000 &
b101000 *
b101000 W
b101000 a
1#
#90000
0#
#95000
b0 2
b0 T
b0 R
b0 O
b10010 P
b11100 ?
b1001000 <
b1001000 b
b11100 6
b11100 >
b1001000 "
b1001000 %
b1001000 8
b1001000 A
b1001000 M
b11100 /
b11100 _
b101100 7
b101100 =
b1000 0
b1000 B
b1000 S
b1000 f
b1 1
b1 C
b1 g
b1000 ]
b11100 [
b11100 ^
b100000110101000000000000 Z
b110101000000001000 \
b1101 5
b1101 D
b1101 I
b101 .
b101 K
b101 X
1;
1:
0'
b11100 c
b1000 e
b110 d
b10000011010111100 Y
b101 E
b1100011 G
b100000110101111001100011 -
b100000110101111001100011 V
b110000 ,
b110000 `
b110000 )
b101100 !
b101100 &
b101100 *
b101100 W
b101100 a
1#
#100000
0#
#105000
bx 2
bx T
bx O
b0 ?
b1000 R
b0 6
b0 >
b0 /
b0 _
b0 P
b0 0
b0 B
b0 S
b0 f
b0 ]
b1010 [
b1010 ^
b101000000000000000 Z
b101000000000000000 \
1'
b0 5
b0 D
b0 I
b0 .
b0 K
b0 X
1:
0;
b1 <
b1 b
b1010 c
b0 e
b101 d
b10100001010 Y
b0 E
b10011 G
b1 "
b1 %
b1 8
b1 A
b1 M
b101000010100010011 -
b101000010100010011 V
b110100 ,
b110100 `
b1 7
b1 =
b110100 )
b110000 !
b110000 &
b110000 *
b110000 W
b110000 a
1#
#110000
0#
#115000
b0 2
b0 T
b0 O
b10 P
b0 R
b1000 <
b1000 b
b1000 "
b1000 %
b1000 8
b1000 A
b1000 M
b1000 7
b1000 =
b1000 1
b1000 C
b1000 g
b1011 [
b100000001010 ^
b1000000000000000000 Z
b1000000000000000000 \
b1011 c
b1000 d
b100000001011 Y
b1000000010110010011 -
b1000000010110010011 V
b111000 ,
b111000 `
b111000 )
b110100 !
b110100 &
b110100 *
b110100 W
b110100 a
1#
#120000
0#
#125000
b100 ?
b100100 6
b100100 >
b100100 /
b100100 _
b10111 P
b1011100 "
b1011100 %
b1011100 8
b1011100 A
b1011100 M
1+
b111000 7
b111000 =
b111100 <
b111100 b
bx 0
bx B
bx S
bx f
b0 1
b0 C
b0 g
b100100 ]
b100001 [
b100000100000 ^
b10010000000000000000000000 Z
b100100 \
b10000 5
b10000 D
b10000 I
b110 .
b110 K
b110 X
1;
b10 (
b10 L
1:
1'
b1 c
b100 e
b0 d
b1001000000000000001 Y
b1 F
b1101111 G
b10010000000000000011101111 -
b10010000000000000011101111 V
b1011100 ,
b1011100 `
b111100 )
b111000 !
b111000 &
b111000 *
b111000 W
b111000 a
1#
#130000
0#
#135000
bx 2
bx T
bx O
b0 ?
b0 6
b0 >
0+
b0 /
b0 _
b0 P
b0 0
b0 B
b0 S
b0 f
b0 ]
b101 [
b100000000100 ^
b0 Z
b0 \
b0 5
b0 D
b0 I
b0 .
b0 K
b0 X
1:
0;
b0 (
b0 L
1'
b1100000 ,
b1100000 `
b101 c
b0 e
b101 Y
b0 F
b10011 G
b0 "
b0 %
b0 8
b0 A
b0 M
b1010010011 -
b1010010011 V
b0 <
b0 b
b0 7
b0 =
b1100000 )
b1011100 !
b1011100 &
b1011100 *
b1011100 W
b1011100 a
1#
#140000
0#
#145000
b0 2
b0 T
b0 O
b10 P
b1000 <
b1000 b
b1000 "
b1000 %
b1000 8
b1000 A
b1000 M
b1000 7
b1000 =
b1000 1
b1000 C
b1000 g
b110 [
b110 ^
b1011000000000000000 Z
b1011000000000000000 \
b110 c
b1011 d
b101100000110 Y
b1011000001100010011 -
b1011000001100010011 V
b1100100 ,
b1100100 `
b1100100 )
b1100000 !
b1100000 &
b1100000 *
b1100000 W
b1100000 a
1#
#150000
0#
#155000
b10000 ?
b10000 6
b10000 >
b11101 P
b10000 /
b10000 _
b1110100 <
b1110100 b
b1110100 "
b1110100 %
b1110100 8
b1110100 A
b1110100 M
b1100100 7
b1100100 =
b10000 [
b10000 ^
b110000000000000000 Z
b110000000000000000 \
b1000 5
b1000 D
b1000 I
b101 .
b101 K
b101 X
1;
1:
0'
b10000 c
b110 d
b11000010000 Y
b1100011 G
b110000100001100011 -
b110000100001100011 V
b1101000 ,
b1101000 `
b1101000 )
b1100100 !
b1100100 &
b1100100 *
b1100100 W
b1100100 a
1#
#160000
0#
#165000
bx 2
bx T
bx O
b1000 R
b1 ?
b1010 /
b1010 _
b1 6
b1 >
b0 P
b1 0
b1 B
b1 S
b1 f
b0 1
b0 C
b0 g
b1010 ]
b101 [
b100000000100 ^
b101000101000000000000000 Z
b101000000000001010 \
1'
b0 5
b0 D
b0 I
b0 .
b0 K
b0 X
0:
0;
b1 <
b1 b
b101 c
b1010 e
b101 d
b10100010100000101 Y
b110011 G
b1 "
b1 %
b1 8
b1 A
b1 M
b101000101000001010110011 -
b101000101000001010110011 V
b1101100 ,
b1101100 `
b0 7
b0 =
b1101100 )
b1101000 !
b1101000 &
b1101000 *
b1101000 W
b1101000 a
1#
#170000
0#
#175000
b0 2
b0 T
b1100 O
b1 P
b10000 Q
b11111 ?
b11000 R
b111 <
b111 b
b11111111111111111111111111111111 /
b11111111111111111111111111111111 _
b11111111111111111111111111111111 6
b11111111111111111111111111111111 >
b111 "
b111 %
b111 8
b111 A
b111 M
bx 0
bx B
bx S
bx f
b11111111111111111111111111111111 ]
b1111111111111111111111111100110 [
b11111111111111111111011111100110 ^
b11111111111100110000000000000000 Z
b11111111111100110000111111111110 \
1:
1'
b1000 7
b1000 =
b110 c
b11111 e
b110 d
b1111111111110011000000110 Y
b1111111 F
b10011 G
b1000 1
b1000 C
b1000 g
b11111111111100110000001100010011 -
b11111111111100110000001100010011 V
b1110000 ,
b1110000 `
b1110000 )
b1101100 !
b1101100 &
b1101100 *
b1101100 W
b1101100 a
1#
#180000
0#
#185000
b0 Q
b0 O
b11001 P
b10100 ?
b11111111111111111111111111110100 6
b11111111111111111111111111110100 >
1+
b11111111111111111111111111110100 /
b11111111111111111111111111110100 _
b0 R
b1110100 <
b1110100 b
b11111111111111111111111111110101 ]
b1111111111111111111111111100000 [
b11111111111111111111011111100000 ^
b11111111010111111111000000000000 Z
b11111111111111111111111111110100 \
b10000 5
b10000 D
b10000 I
b110 .
b110 K
b110 X
1;
b10 (
b10 L
1:
1'
b1100100 "
b1100100 %
b1100100 8
b1100100 A
b1100100 M
b0 c
b10101 e
b11111 d
b1111111101011111111100000 Y
b111 E
b1101111 G
b1110000 7
b1110000 =
b11111111010111111111000001101111 -
b11111111010111111111000001101111 V
b1100100 ,
b1100100 `
bx 1
bx C
bx g
b1110100 )
b1110000 !
b1110000 &
b1110000 *
b1110000 W
b1110000 a
1#
#190000
0#
#195000
b10000 ?
b10000 6
b10000 >
b10000 /
b10000 _
0+
b11101 P
b0 0
b0 B
b0 S
b0 f
b111 1
b111 C
b111 g
b0 ]
b10000 [
b10000 ^
b110000000000000000 Z
b110000000000000000 \
b1000 5
b1000 D
b1000 I
b101 .
b101 K
b101 X
1:
1;
b0 (
b0 L
0'
b1101000 ,
b1101000 `
b10000 c
b0 e
b110 d
b11000010000 Y
b0 F
b0 E
b1100011 G
b1110100 "
b1110100 %
b1110100 8
b1110100 A
b1110100 M
b110000100001100011 -
b110000100001100011 V
b1110100 <
b1110100 b
b1100100 7
b1100100 =
b1101000 )
b1100100 !
b1100100 &
b1100100 *
b1100100 W
b1100100 a
1#
#200000
0#
#205000
bx 2
bx T
b10000 Q
bx O
b10000 R
b1 ?
b1010 /
b1010 _
b1 6
b1 >
b0 P
b1 0
b1 B
b1 S
b1 f
b1 1
b1 C
b1 g
b1010 ]
b101 [
b100000000100 ^
b101000101000000000000000 Z
b101000000000001010 \
1'
b0 5
b0 D
b0 I
b0 .
b0 K
b0 X
0:
0;
b10 <
b10 b
b101 c
b1010 e
b101 d
b10100010100000101 Y
b110011 G
b10 "
b10 %
b10 8
b10 A
b10 M
b101000101000001010110011 -
b101000101000001010110011 V
b1101100 ,
b1101100 `
b1 7
b1 =
b1101100 )
b1101000 !
b1101000 &
b1101000 *
b1101000 W
b1101000 a
1#
#210000
0#
#215000
b0 2
b0 T
b1100 O
b1 P
b10000 Q
b11111 ?
b10000 R
b110 <
b110 b
b11111111111111111111111111111111 /
b11111111111111111111111111111111 _
b11111111111111111111111111111111 6
b11111111111111111111111111111111 >
b110 "
b110 %
b110 8
b110 A
b110 M
bx 0
bx B
bx S
bx f
b11111111111111111111111111111111 ]
b1111111111111111111111111100110 [
b11111111111111111111011111100110 ^
b11111111111100110000000000000000 Z
b11111111111100110000111111111110 \
1:
1'
b111 7
b111 =
b110 c
b11111 e
b110 d
b1111111111110011000000110 Y
b1111111 F
b10011 G
b111 1
b111 C
b111 g
b11111111111100110000001100010011 -
b11111111111100110000001100010011 V
b1110000 ,
b1110000 `
b1110000 )
b1101100 !
b1101100 &
b1101100 *
b1101100 W
b1101100 a
1#
#220000
0#
#225000
b0 O
b11001 P
b10100 ?
b11111111111111111111111111110100 6
b11111111111111111111111111110100 >
b0 Q
1+
b11111111111111111111111111110100 /
b11111111111111111111111111110100 _
b0 R
b1110100 <
b1110100 b
b11111111111111111111111111110101 ]
b1111111111111111111111111100000 [
b11111111111111111111011111100000 ^
b11111111010111111111000000000000 Z
b11111111111111111111111111110100 \
b10000 5
b10000 D
b10000 I
b110 .
b110 K
b110 X
1;
b10 (
b10 L
1:
1'
b1100100 "
b1100100 %
b1100100 8
b1100100 A
b1100100 M
b0 c
b10101 e
b11111 d
b1111111101011111111100000 Y
b111 E
b1101111 G
b1110000 7
b1110000 =
b11111111010111111111000001101111 -
b11111111010111111111000001101111 V
b1100100 ,
b1100100 `
bx 1
bx C
bx g
b1110100 )
b1110000 !
b1110000 &
b1110000 *
b1110000 W
b1110000 a
1#
#230000
0#
#235000
b10000 ?
b10000 6
b10000 >
b10000 /
b10000 _
0+
b11101 P
b0 0
b0 B
b0 S
b0 f
b110 1
b110 C
b110 g
b0 ]
b10000 [
b10000 ^
b110000000000000000 Z
b110000000000000000 \
b1000 5
b1000 D
b1000 I
b101 .
b101 K
b101 X
1:
1;
b0 (
b0 L
0'
b1101000 ,
b1101000 `
b10000 c
b0 e
b110 d
b11000010000 Y
b0 F
b0 E
b1100011 G
b1110100 "
b1110100 %
b1110100 8
b1110100 A
b1110100 M
b110000100001100011 -
b110000100001100011 V
b1110100 <
b1110100 b
b1100100 7
b1100100 =
b1101000 )
b1100100 !
b1100100 &
b1100100 *
b1100100 W
b1100100 a
1#
#240000
0#
#245000
bx 2
bx T
b10000 Q
bx O
b11000 R
b1 ?
b1010 /
b1010 _
b1 6
b1 >
b0 P
b1 0
b1 B
b1 S
b1 f
b10 1
b10 C
b10 g
b1010 ]
b101 [
b100000000100 ^
b101000101000000000000000 Z
b101000000000001010 \
1'
b0 5
b0 D
b0 I
b0 .
b0 K
b0 X
0:
0;
b11 <
b11 b
b101 c
b1010 e
b101 d
b10100010100000101 Y
b110011 G
b11 "
b11 %
b11 8
b11 A
b11 M
b101000101000001010110011 -
b101000101000001010110011 V
b1101100 ,
b1101100 `
b10 7
b10 =
b1101100 )
b1101000 !
b1101000 &
b1101000 *
b1101000 W
b1101000 a
1#
#250000
0#
#255000
b0 2
b0 T
b1100 O
b1 P
b0 Q
b11111 ?
b1000 R
b101 <
b101 b
b11111111111111111111111111111111 /
b11111111111111111111111111111111 _
b11111111111111111111111111111111 6
b11111111111111111111111111111111 >
b101 "
b101 %
b101 8
b101 A
b101 M
bx 0
bx B
bx S
bx f
b11111111111111111111111111111111 ]
b1111111111111111111111111100110 [
b11111111111111111111011111100110 ^
b11111111111100110000000000000000 Z
b11111111111100110000111111111110 \
1:
1'
b110 7
b110 =
b110 c
b11111 e
b110 d
b1111111111110011000000110 Y
b1111111 F
b10011 G
b110 1
b110 C
b110 g
b11111111111100110000001100010011 -
b11111111111100110000001100010011 V
b1110000 ,
b1110000 `
b1110000 )
b1101100 !
b1101100 &
b1101100 *
b1101100 W
b1101100 a
1#
#260000
0#
#265000
b0 Q
b0 O
b11001 P
b10100 ?
b11111111111111111111111111110100 6
b11111111111111111111111111110100 >
b0 2
b0 T
1+
b11111111111111111111111111110100 /
b11111111111111111111111111110100 _
b0 R
b1110100 <
b1110100 b
b11111111111111111111111111110101 ]
b1111111111111111111111111100000 [
b11111111111111111111011111100000 ^
b11111111010111111111000000000000 Z
b11111111111111111111111111110100 \
b10000 5
b10000 D
b10000 I
b110 .
b110 K
b110 X
1;
b10 (
b10 L
1:
1'
b1100100 "
b1100100 %
b1100100 8
b1100100 A
b1100100 M
b0 c
b10101 e
b11111 d
b1111111101011111111100000 Y
b111 E
b1101111 G
b1110000 7
b1110000 =
b11111111010111111111000001101111 -
b11111111010111111111000001101111 V
b1100100 ,
b1100100 `
bx 1
bx C
bx g
b1110100 )
b1110000 !
b1110000 &
b1110000 *
b1110000 W
b1110000 a
1#
#270000
0#
#275000
b10000 ?
b10000 6
b10000 >
b10000 /
b10000 _
0+
b11101 P
b0 0
b0 B
b0 S
b0 f
b101 1
b101 C
b101 g
b0 ]
b10000 [
b10000 ^
b110000000000000000 Z
b110000000000000000 \
b1000 5
b1000 D
b1000 I
b101 .
b101 K
b101 X
1:
1;
b0 (
b0 L
0'
b1101000 ,
b1101000 `
b10000 c
b0 e
b110 d
b11000010000 Y
b0 F
b0 E
b1100011 G
b1110100 "
b1110100 %
b1110100 8
b1110100 A
b1110100 M
b110000100001100011 -
b110000100001100011 V
b1110100 <
b1110100 b
b1100100 7
b1100100 =
b1101000 )
b1100100 !
b1100100 &
b1100100 *
b1100100 W
b1100100 a
1#
#280000
0#
#285000
b1100 2
b1100 T
b1100 O
b1 ?
b1010 /
b1010 _
b1 6
b1 >
b1 P
b1 0
b1 B
b1 S
b1 f
b11 1
b11 C
b11 g
b1010 ]
b101 [
b100000000100 ^
b101000101000000000000000 Z
b101000000000001010 \
1'
b0 5
b0 D
b0 I
b0 .
b0 K
b0 X
0:
0;
b100 <
b100 b
b101 c
b1010 e
b101 d
b10100010100000101 Y
b110011 G
b100 "
b100 %
b100 8
b100 A
b100 M
b101000101000001010110011 -
b101000101000001010110011 V
b1101100 ,
b1101100 `
b11 7
b11 =
b1101100 )
b1101000 !
b1101000 &
b1101000 *
b1101000 W
b1101000 a
1#
#290000
0#
#295000
b0 Q
b1100 O
b1 P
b1100 2
b1100 T
b11111 ?
b0 R
b100 <
b100 b
b11111111111111111111111111111111 /
b11111111111111111111111111111111 _
b11111111111111111111111111111111 6
b11111111111111111111111111111111 >
b100 "
b100 %
b100 8
b100 A
b100 M
bx 0
bx B
bx S
bx f
b11111111111111111111111111111111 ]
b1111111111111111111111111100110 [
b11111111111111111111011111100110 ^
b11111111111100110000000000000000 Z
b11111111111100110000111111111110 \
1:
1'
b101 7
b101 =
b110 c
b11111 e
b110 d
b1111111111110011000000110 Y
b1111111 F
b10011 G
b101 1
b101 C
b101 g
b11111111111100110000001100010011 -
b11111111111100110000001100010011 V
b1110000 ,
b1110000 `
b1110000 )
b1101100 !
b1101100 &
b1101100 *
b1101100 W
b1101100 a
1#
#300000
0#
#305000
b10100 ?
b11111111111111111111111111110100 6
b11111111111111111111111111110100 >
b0 2
b0 T
b0 Q
b0 O
b11001 P
1+
b11111111111111111111111111110100 /
b11111111111111111111111111110100 _
b0 R
b1110100 <
b1110100 b
b11111111111111111111111111110101 ]
b1111111111111111111111111100000 [
b11111111111111111111011111100000 ^
b11111111010111111111000000000000 Z
b11111111111111111111111111110100 \
b10000 5
b10000 D
b10000 I
b110 .
b110 K
b110 X
1;
b10 (
b10 L
1:
1'
b1100100 "
b1100100 %
b1100100 8
b1100100 A
b1100100 M
b0 c
b10101 e
b11111 d
b1111111101011111111100000 Y
b111 E
b1101111 G
b1110000 7
b1110000 =
b11111111010111111111000001101111 -
b11111111010111111111000001101111 V
b1100100 ,
b1100100 `
bx 1
bx C
bx g
b1110100 )
b1110000 !
b1110000 &
b1110000 *
b1110000 W
b1110000 a
1#
#310000
0#
#315000
b10000 ?
b10000 6
b10000 >
b10000 /
b10000 _
0+
b11101 P
b0 0
b0 B
b0 S
b0 f
b100 1
b100 C
b100 g
b0 ]
b10000 [
b10000 ^
b110000000000000000 Z
b110000000000000000 \
b1000 5
b1000 D
b1000 I
b101 .
b101 K
b101 X
1:
1;
b0 (
b0 L
0'
b1101000 ,
b1101000 `
b10000 c
b0 e
b110 d
b11000010000 Y
b0 F
b0 E
b1100011 G
b1110100 "
b1110100 %
b1110100 8
b1110100 A
b1110100 M
b110000100001100011 -
b110000100001100011 V
b1110100 <
b1110100 b
b1100100 7
b1100100 =
b1101000 )
b1100100 !
b1100100 &
b1100100 *
b1100100 W
b1100100 a
1#
#320000
0#
#325000
b1100 O
b1000 R
b1 ?
b1010 /
b1010 _
b1 6
b1 >
b1 P
b1 0
b1 B
b1 S
b1 f
b1010 ]
b101 [
b100000000100 ^
b101000101000000000000000 Z
b101000000000001010 \
1'
b0 5
b0 D
b0 I
b0 .
b0 K
b0 X
0:
0;
b101 <
b101 b
b101 c
b1010 e
b101 d
b10100010100000101 Y
b110011 G
b101 "
b101 %
b101 8
b101 A
b101 M
b101000101000001010110011 -
b101000101000001010110011 V
b1101100 ,
b1101100 `
b100 7
b100 =
b1101100 )
b1101000 !
b1101000 &
b1101000 *
b1101000 W
b1101000 a
1#
#330000
0#
#335000
bx 2
bx T
bx O
b0 P
b10000 Q
b11111 ?
b11000 R
b11 <
b11 b
b11111111111111111111111111111111 /
b11111111111111111111111111111111 _
b11111111111111111111111111111111 6
b11111111111111111111111111111111 >
b11 "
b11 %
b11 8
b11 A
b11 M
bx 0
bx B
bx S
bx f
b11111111111111111111111111111111 ]
b1111111111111111111111111100110 [
b11111111111111111111011111100110 ^
b11111111111100110000000000000000 Z
b11111111111100110000111111111110 \
1:
1'
b100 7
b100 =
b110 c
b11111 e
b110 d
b1111111111110011000000110 Y
b1111111 F
b10011 G
b100 1
b100 C
b100 g
b11111111111100110000001100010011 -
b11111111111100110000001100010011 V
b1110000 ,
b1110000 `
b1110000 )
b1101100 !
b1101100 &
b1101100 *
b1101100 W
b1101100 a
1#
#340000
0#
#345000
b0 Q
b0 2
b0 T
b0 O
b11001 P
b10100 ?
b11111111111111111111111111110100 6
b11111111111111111111111111110100 >
1+
b11111111111111111111111111110100 /
b11111111111111111111111111110100 _
b0 R
b1110100 <
b1110100 b
b11111111111111111111111111110101 ]
b1111111111111111111111111100000 [
b11111111111111111111011111100000 ^
b11111111010111111111000000000000 Z
b11111111111111111111111111110100 \
b10000 5
b10000 D
b10000 I
b110 .
b110 K
b110 X
1;
b10 (
b10 L
1:
1'
b1100100 "
b1100100 %
b1100100 8
b1100100 A
b1100100 M
b0 c
b10101 e
b11111 d
b1111111101011111111100000 Y
b111 E
b1101111 G
b1110000 7
b1110000 =
b11111111010111111111000001101111 -
b11111111010111111111000001101111 V
b1100100 ,
b1100100 `
bx 1
bx C
bx g
b1110100 )
b1110000 !
b1110000 &
b1110000 *
b1110000 W
b1110000 a
1#
#350000
0#
#355000
b10000 ?
b10000 6
b10000 >
b10000 /
b10000 _
0+
b11101 P
b0 0
b0 B
b0 S
b0 f
b11 1
b11 C
b11 g
b0 ]
b10000 [
b10000 ^
b110000000000000000 Z
b110000000000000000 \
b1000 5
b1000 D
b1000 I
b101 .
b101 K
b101 X
1:
1;
b0 (
b0 L
0'
b1101000 ,
b1101000 `
b10000 c
b0 e
b110 d
b11000010000 Y
b0 F
b0 E
b1100011 G
b1110100 "
b1110100 %
b1110100 8
b1110100 A
b1110100 M
b110000100001100011 -
b110000100001100011 V
b1110100 <
b1110100 b
b1100100 7
b1100100 =
b1101000 )
b1100100 !
b1100100 &
b1100100 *
b1100100 W
b1100100 a
1#
#360000
0#
#365000
b10000 Q
b1100 O
b10000 R
b1 ?
b1010 /
b1010 _
b1 6
b1 >
b1 P
b1 0
b1 B
b1 S
b1 f
b101 1
b101 C
b101 g
b1010 ]
b101 [
b100000000100 ^
b101000101000000000000000 Z
b101000000000001010 \
1'
b0 5
b0 D
b0 I
b0 .
b0 K
b0 X
0:
0;
b110 <
b110 b
b101 c
b1010 e
b101 d
b10100010100000101 Y
b110011 G
b110 "
b110 %
b110 8
b110 A
b110 M
b101000101000001010110011 -
b101000101000001010110011 V
b1101100 ,
b1101100 `
b101 7
b101 =
b1101100 )
b1101000 !
b1101000 &
b1101000 *
b1101000 W
b1101000 a
1#
#370000
0#
