sim/riscv/wave.vcd
$date
	Sun Nov 23 18:10:13 2025
$end
$version
	Icarus Verilog
$end
$timescale
	1ps
$end
$scope module riscv_tb $end
$var wire 32 ! PC_out [31:0] $end
$var wire 32 " ALURes_out [31:0] $end
$var reg 1 # clk $end
$var reg 1 $ reset $end
$scope module dut $end
$var wire 32 % ALURes_out [31:0] $end
$var wire 32 & PC_out [31:0] $end
$var wire 1 # clk $end
$var wire 1 $ reset $end
$var wire 1 ' RUWr $end
$var wire 2 ( RUDataWrSrc [1:0] $end
$var wire 32 ) PCplus4 [31:0] $end
$var wire 32 * PC [31:0] $end
$var wire 1 + NextPCSrc $end
$var wire 32 , NextPC [31:0] $end
$var wire 32 - Instruction [31:0] $end
$var wire 3 . ImmSrc [2:0] $end
$var wire 32 / ImmExt [31:0] $end
$var wire 32 0 DataRs2 [31:0] $end
$var wire 32 1 DataRs1 [31:0] $end
$var wire 32 2 DataRd [31:0] $end
$var wire 1 3 DMWr $end
$var wire 3 4 DMCtrl [2:0] $end
$var wire 5 5 BrOp [4:0] $end
$var wire 32 6 ALU_B [31:0] $end
$var wire 32 7 ALU_A [31:0] $end
$var wire 32 8 ALURes [31:0] $end
$var wire 4 9 ALUOp [3:0] $end
$var wire 1 : ALUBSrc $end
$var wire 1 ; ALUASrc $end
$var reg 32 < RUDataWr [31:0] $end
$scope module ALU $end
$var wire 32 = A [31:0] $end
$var wire 32 > B [31:0] $end
$var wire 5 ? shamt [4:0] $end
$var wire 4 @ ALUOp [3:0] $end
$var reg 32 A ALURes [31:0] $end
$upscope $end
$scope module BU $end
$var wire 32 B rs2 [31:0] $end
$var wire 32 C rs1 [31:0] $end
$var wire 5 D BrOp [4:0] $end
$var reg 1 + NextPCSrc $end
$upscope $end
$scope module CU $end
$var wire 3 E funct3 [2:0] $end
$var wire 7 F funct7 [6:0] $end
$var wire 7 G opcode [6:0] $end
$var reg 1 ; ALUASrc $end
$var reg 1 : ALUBSrc $end
$var reg 4 H ALUOp [3:0] $end
$var reg 5 I BrOp [4:0] $end
$var reg 3 J DMCtrl [2:0] $end
$var reg 1 3 DMWr $end
$var reg 3 K ImmSrc [2:0] $end
$var reg 2 L RUDataWrSrc [1:0] $end
$var reg 1 ' RUWr $end
$upscope $end
$scope module DMEM $end
$var wire 32 M Address [31:0] $end
$var wire 3 N DMCtrl [2:0] $end
$var wire 1 3 DMWr $end
$var wire 1 # clk $end
$var wire 32 O temp_word [31:0] $end
$var wire 8 P word_index [7:0] $end
$var wire 32 Q DataWr [31:0] $end
$var reg 32 R DataRd [31:0] $end
$scope begin $unm_blk_19 $end
$var integer 32 S i [31:0] $end
$upscope $end
$upscope $end
$scope module IMEM $end
$var wire 32 T Instruction [31:0] $end
$var wire 32 U Address [31:0] $end
$upscope $end
$scope module IMM $end
$var wire 3 V ImmSrc [2:0] $end
$var wire 25 W Instr [24:0] $end
$var wire 32 X imm_u [31:0] $end
$var wire 32 Y imm_s [31:0] $end
$var wire 32 Z imm_j [31:0] $end
$var wire 32 [ imm_i [31:0] $end
$var wire 32 \ imm_b [31:0] $end
$var wire 32 ] ImmExt [31:0] $end
$upscope $end
$scope module PCU $end
$var wire 32 ^ NextPC [31:0] $end
$var wire 1 # clk $end
$var wire 1 $ reset $end
$var reg 32 _ PC [31:0] $end
$upscope $end
$scope module RU $end
$var wire 32 ` DataWr [31:0] $end
$var wire 1 ' RUWr $end
$var wire 1 # clk $end
$var wire 5 a rd [4:0] $end
$var wire 5 b rs1 [4:0] $end
$var wire 5 c rs2 [4:0] $end
$var wire 32 d RU_rs2 [31:0] $end
$var wire 32 e RU_rs1 [31:0] $end
$upscope $end
$upscope $end
$upscope $end
$enddefinitions $end
$comment Show the parameter values. $end
$dumpall
$end
#0
$dumpvars
b0 e
b0 d
b0 c
b0 b
b10 a
b10000000000 `
b0 _
b100 ^
b10000000000 ]
b10000000010 \
b10000000000 [
b10000000000 Z
b10000000010 Y
b1000000000000000000000000000000 X
b100000000000000000000010 W
b0 V
b0 U
b1000000000000000000000100010011 T
b100000000 S
b0 R
b0 Q
b0 P
b0 O
b0 N
b10000000000 M
b0 L
b0 K
b0 J
b0 I
b0 H
b10011 G
b100000 F
b0 E
b0 D
b0 C
b0 B
b10000000000 A
b0 @
b0 ?
b10000000000 >
b0 =
b10000000000 <
0;
1:
b0 9
b10000000000 8
b0 7
b10000000000 6
b0 5
b0 4
03
b0 2
b0 1
b0 0
b10000000000 /
b0 .
b1000000000000000000000100010011 -
b100 ,
0+
b0 *
b100 )
b0 (
1'
b0 &
b10000000000 %
1$
0#
b10000000000 "
b0 !
$end
#5000
1#
#10000
0#
#15000
1#
#20000
0#
0$
#25000
b10 P
b1000 <
b1000 `
b1000 "
b1000 %
b1000 8
b1000 A
b1000 M
b1000 ?
b1000 6
b1000 >
b1000 /
b1000 ]
bx 0
bx B
bx Q
bx d
b1000 [
b1010 Y
b1010 \
b100000000000000000000000 X
b1000 Z
1:
1'
b1010 a
b1000 c
b10000000000001010 W
b0 F
b100000000000010100010011 -
b100000000000010100010011 T
b1000 ,
b1000 ^
b1000 )
b100 !
b100 &
b100 *
b100 U
b100 _
1#
#30000
0#
#35000
b100 P
b1000 ?
b1000 6
b1000 >
b10000 "
b10000 %
b10000 8
b10000 A
b10000 M
1+
b1000 /
b1000 ]
b1000 7
b1000 =
b1100 <
b1100 `
b1 Y
b100000000000 \
b10000 5
b10000 D
b10000 I
b110 .
b110 K
b110 V
1;
b10 (
b10 L
1:
1'
b1 a
b10000000000000001 W
b1101111 G
b100000000000000011101111 -
b100000000000000011101111 T
b10000 ,
b10000 ^
b1100 )
b1000 !
b1000 &
b1000 *
b1000 U
b1000 _
1#
#40000
0#
#45000
b11000 ?
b11111111111111111111111111111000 6
b11111111111111111111111111111000 >
0+
b11111111111111111111111111111000 /
b11111111111111111111111111111000 ]
b11111110 P
b10000000000 1
b10000000000 C
b10000000000 e
b11111111111111111111111111111000 [
b1111111111111111111111111100010 Y
b11111111111111111111011111100010 \
b11111111100000010000000000000000 X
b11111111111100010000011111111000 Z
b0 5
b0 D
b0 I
b0 .
b0 K
b0 V
1:
0;
b0 (
b0 L
1'
b10100 ,
b10100 ^
b10 a
b11000 c
b10 b
b1111111110000001000000010 W
b1111111 F
b10011 G
b1111111000 "
b1111111000 %
b1111111000 8
b1111111000 A
b1111111000 M
b11111111100000010000000100010011 -
b11111111100000010000000100010011 T
b1111111000 <
b1111111000 `
b10000000000 7
b10000000000 =
b10100 )
b10000 !
b10000 &
b10000 *
b10000 U
b10000 _
1#
#50000
0#
#55000
b100 ?
b11111111 P
b100 6
b100 >
b1111111100 <
b1111111100 `
b100 /
b100 ]
b1111111100 "
b1111111100 %
b1111111100 8
b1111111100 A
b1111111100 M
b1100 0
b1100 B
b1100 Q
b1100 d
b1 [
b100 Y
b100 \
b100010010000000000000 X
b10010100000000000 Z
b10 4
b10 J
b10 N
b1 .
b1 K
b1 V
13
1:
0'
b1111111000 7
b1111111000 =
b100 a
b1 c
b10001001000100 W
b0 F
b10 E
b100011 G
b1111111000 1
b1111111000 C
b1111111000 e
b100010010001000100011 -
b100010010001000100011 T
b11000 ,
b11000 ^
b11000 )
b10100 !
b10100 &
b10100 *
b10100 U
b10100 _
1#
#60000
0#
#65000
b11111110 P
b1111111000 <
b1111111000 `
b1111111000 "
b1111111000 %
b1111111000 8
b1111111000 A
b1111111000 M
b0 ?
b0 6
b0 >
b0 /
b0 ]
bx 0
bx B
bx Q
bx d
b1000 [
b0 Y
b0 \
b100000010010000000000000 X
b10010000000001000 Z
b0 a
b1000 c
b10000001001000000 W
b100000010010000000100011 -
b100000010010000000100011 T
b11100 ,
b11100 ^
b0 2
b0 R
b11100 )
b11000 !
b11000 &
b11000 *
b11000 U
b11000 _
b0 O
1#
#70000
0#
#75000
b10 P
b1000 <
b1000 `
b1000 "
b1000 %
b1000 8
b1000 A
b1000 M
b1000 7
b1000 =
b0 0
b0 B
b0 Q
b0 d
b1000 1
b1000 C
b1000 e
b0 [
b1000 Y
b1000 \
b1010000000000000000 X
b1010000000000000000 Z
1'
b0 .
b0 K
b0 V
1:
b0 4
b0 J
b0 N
03
b1000 a
b0 c
b1010 b
b101000001000 W
b0 E
b10011 G
b0 2
b0 R
b1010000010000010011 -
b1010000010000010011 T
b100000 ,
b100000 ^
b0 O
b100000 )
b11100 !
b11100 &
b11100 *
b11100 U
b11100 _
1#
#80000
0#
#85000
b0 P
b1 <
b1 `
b1 ?
b1 "
b1 %
b1 8
b1 A
b1 M
b1 6
b1 >
b0 7
b0 =
b1 /
b1 ]
b1100 0
b1100 B
b1100 Q
b1100 d
b0 1
b0 C
b0 e
b1 [
b101 Y
b100000000100 \
b100000000000000000000 X
b100000000000 Z
b101 a
b1 c
b0 b
b10000000000101 W
b100000000001010010011 -
b100000000001010010011 T
b100100 ,
b100100 ^
b100100 )
b100000 !
b100000 &
b100000 *
b100000 U
b100000 _
1#
#90000
0#
#95000
b110 Y
b110 \
b110 a
b10000000000110 W
b100000000001100010011 -
b100000000001100010011 T
b101000 ,
b101000 ^
b101000 )
b100100 !
b100100 &
b100100 *
b100100 U
b100100 _
1#
#100000
0#
#105000
b10001 P
b11100 ?
b1000100 <
b1000100 `
b11100 6
b11100 >
b1000100 "
b1000100 %
b1000100 8
b1000100 A
b1000100 M
b11100 /
b11100 ]
b101000 7
b101000 =
b1000 0
b1000 B
b1000 Q
b1000 d
b1 1
b1 C
b1 e
b1000 [
b11100 Y
b11100 \
b100000110101000000000000 X
b110101000000001000 Z
b1101 5
b1101 D
b1101 I
b101 .
b101 K
b101 V
1;
1:
0'
b11100 a
b1000 c
b110 b
b10000011010111100 W
b101 E
b1100011 G
b100000110101111001100011 -
b100000110101111001100011 T
b101100 ,
b101100 ^
b101100 )
b101000 !
b101000 &
b101000 *
b101000 U
b101000 _
1#
#110000
0#
#115000
b0 ?
b0 6
b0 >
b0 /
b0 ]
b0 P
b0 0
b0 B
b0 Q
b0 d
b0 [
b1010 Y
b1010 \
b101000000000000000 X
b101000000000000000 Z
1'
b0 5
b0 D
b0 I
b0 .
b0 K
b0 V
1:
0;
b1 <
b1 `
b1010 a
b0 c
b101 b
b10100001010 W
b0 E
b10011 G
b1 "
b1 %
b1 8
b1 A
b1 M
b101000010100010011 -
b101000010100010011 T
b110000 ,
b110000 ^
b1 7
b1 =
b110000 )
b101100 !
b101100 &
b101100 *
b101100 U
b101100 _
1#
#120000
0#
#125000
b10 P
b1000 <
b1000 `
b1000 "
b1000 %
b1000 8
b1000 A
b1000 M
b1000 7
b1000 =
b1000 1
b1000 C
b1000 e
b1011 Y
b100000001010 \
b1000000000000000000 X
b1000000000000000000 Z
b1011 a
b1000 b
b100000001011 W
b1000000010110010011 -
b1000000010110010011 T
b110100 ,
b110100 ^
b110100 )
b110000 !
b110000 &
b110000 *
b110000 U
b110000 _
1#
#130000
0#
#135000
b100 ?
b100100 6
b100100 >
b100100 /
b100100 ]
b10110 P
b1011000 "
b1011000 %
b1011000 8
b1011000 A
b1011000 M
1+
b110100 7
b110100 =
b111000 <
b111000 `
bx 0
bx B
bx Q
bx d
b0 1
b0 C
b0 e
b100100 [
b100001 Y
b100000100000 \
b10010000000000000000000000 X
b100100 Z
b10000 5
b10000 D
b10000 I
b110 .
b110 K
b110 V
1;
b10 (
b10 L
1:
1'
b1 a
b100 c
b0 b
b1001000000000000001 W
b1 F
b1101111 G
b10010000000000000011101111 -
b10010000000000000011101111 T
b1011000 ,
b1011000 ^
b111000 )
b110100 !
b110100 &
b110100 *
b110100 U
b110100 _
1#
#140000
0#
#145000
b0 ?
b0 6
b0 >
0+
b0 /
b0 ]
b0 P
b0 0
b0 B
b0 Q
b0 d
b0 [
b101 Y
b100000000100 \
b0 X
b0 Z
b0 5
b0 D
b0 I
b0 .
b0 K
b0 V
1:
0;
b0 (
b0 L
1'
b1011100 ,
b1011100 ^
b101 a
b0 c
b101 W
b0 F
b10011 G
b0 "
b0 %
b0 8
b0 A
b0 M
b1010010011 -
b1010010011 T
b0 <
b0 `
b0 7
b0 =
b1011100 )
b1011000 !
b1011000 &
b1011000 *
b1011000 U
b1011000 _
1#
#150000
0#
#155000
b10 P
b1000 <
b1000 `
b1000 "
b1000 %
b1000 8
b1000 A
b1000 M
b1000 7
b1000 =
b1000 1
b1000 C
b1000 e
b110 Y
b110 \
b1011000000000000000 X
b1011000000000000000 Z
b110 a
b1011 b
b101100000110 W
b1011000001100010011 -
b1011000001100010011 T
b1100000 ,
b1100000 ^
b1100000 )
b1011100 !
b1011100 &
b1011100 *
b1011100 U
b1011100 _
1#
#160000
0#
#165000
b10000 ?
b10000 6
b10000 >
b11100 P
b10000 /
b10000 ]
b1110000 <
b1110000 `
b1110000 "
b1110000 %
b1110000 8
b1110000 A
b1110000 M
b1100000 7
b1100000 =
b10000 Y
b10000 \
b110000000000000000 X
b110000000000000000 Z
b1000 5
b1000 D
b1000 I
b101 .
b101 K
b101 V
1;
1:
0'
b10000 a
b110 b
b11000010000 W
b1100011 G
b110000100001100011 -
b110000100001100011 T
b1100100 ,
b1100100 ^
b1100100 )
b1100000 !
b1100000 &
b1100000 *
b1100000 U
b1100000 _
1#
#170000
0#
#175000
b1 ?
b1010 /
b1010 ]
b1 6
b1 >
b0 P
b1 0
b1 B
b1 Q
b1 d
b0 1
b0 C
b0 e
b1010 [
b101 Y
b100000000100 \
b101000101000000000000000 X
b101000000000001010 Z
1'
b0 5
b0 D
b0 I
b0 .
b0 K
b0 V
0:
0;
b1 <
b1 `
b101 a
b1010 c
b101 b
b10100010100000101 W
b110011 G
b1 "
b1 %
b1 8
b1 A
b1 M
b101000101000001010110011 -
b101000101000001010110011 T
b1101000 ,
b1101000 ^
b0 7
b0 =
b1101000 )
b1100100 !
b1100100 &
b1100100 *
b1100100 U
b1100100 _
1#
#180000
0#
#185000
b1 P
b11111 ?
b11111111111111111111111111111111 /
b11111111111111111111111111111111 ]
b11111111111111111111111111111111 6
b11111111111111111111111111111111 >
b111 <
b111 `
bx 0
bx B
bx Q
bx d
b11111111111111111111111111111111 [
b1111111111111111111111111100110 Y
b11111111111111111111011111100110 \
b11111111111100110000000000000000 X
b11111111111100110000111111111110 Z
1:
1'
b111 "
b111 %
b111 8
b111 A
b111 M
b110 a
b11111 c
b110 b
b1111111111110011000000110 W
b1111111 F
b10011 G
b1000 7
b1000 =
b11111111111100110000001100010011 -
b11111111111100110000001100010011 T
b1101100 ,
b1101100 ^
b1000 1
b1000 C
b1000 e
b1101100 )
b1101000 !
b1101000 &
b1101000 *
b1101000 U
b1101000 _
1#
#190000
0#
#195000
b11000 P
b10100 ?
b11111111111111111111111111110100 6
b11111111111111111111111111110100 >
1+
b11111111111111111111111111110100 /
b11111111111111111111111111110100 ]
b1110000 <
b1110000 `
b1100000 "
b1100000 %
b1100000 8
b1100000 A
b1100000 M
b11111111111111111111111111110101 [
b1111111111111111111111111100000 Y
b11111111111111111111011111100000 \
b11111111010111111111000000000000 X
b11111111111111111111111111110100 Z
b10000 5
b10000 D
b10000 I
b110 .
b110 K
b110 V
1;
b10 (
b10 L
1:
1'
b1101100 7
b1101100 =
b0 a
b10101 c
b11111 b
b1111111101011111111100000 W
b111 E
b1101111 G
bx 1
bx C
bx e
b11111111010111111111000001101111 -
b11111111010111111111000001101111 T
b1100000 ,
b1100000 ^
b1110000 )
b1101100 !
b1101100 &
b1101100 *
b1101100 U
b1101100 _
1#
#200000
0#
#205000
b10000 ?
b10000 6
b10000 >
b10000 /
b10000 ]
0+
b11100 P
b0 0
b0 B
b0 Q
b0 d
b111 1
b111 C
b111 e
b0 [
b10000 Y
b10000 \
b110000000000000000 X
b110000000000000000 Z
b1000 5
b1000 D
b1000 I
b101 .
b101 K
b101 V
1:
1;
b0 (
b0 L
0'
b1100100 ,
b1100100 ^
b10000 a
b0 c
b110 b
b11000010000 W
b0 F
b0 E
b1100011 G
b1110000 "
b1110000 %
b1110000 8
b1110000 A
b1110000 M
b110000100001100011 -
b110000100001100011 T
b1110000 <
b1110000 `
b1100000 7
b1100000 =
b1100100 )
b1100000 !
b1100000 &
b1100000 *
b1100000 U
b1100000 _
1#
#210000
0#
#215000
b1 ?
b1010 /
b1010 ]
b1 6
b1 >
b0 P
b1 0
b1 B
b1 Q
b1 d
b1 1
b1 C
b1 e
b1010 [
b101 Y
b100000000100 \
b101000101000000000000000 X
b101000000000001010 Z
1'
b0 5
b0 D
b0 I
b0 .
b0 K
b0 V
0:
0;
b10 <
b10 `
b101 a
b1010 c
b101 b
b10100010100000101 W
b110011 G
b10 "
b10 %
b10 8
b10 A
b10 M
b101000101000001010110011 -
b101000101000001010110011 T
b1101000 ,
b1101000 ^
b1 7
b1 =
b1101000 )
b1100100 !
b1100100 &
b1100100 *
b1100100 U
b1100100 _
1#
#220000
0#
#225000
b1 P
b11111 ?
b11111111111111111111111111111111 /
b11111111111111111111111111111111 ]
b11111111111111111111111111111111 6
b11111111111111111111111111111111 >
b110 <
b110 `
bx 0
bx B
bx Q
bx d
b11111111111111111111111111111111 [
b1111111111111111111111111100110 Y
b11111111111111111111011111100110 \
b11111111111100110000000000000000 X
b11111111111100110000111111111110 Z
1:
1'
b110 "
b110 %
b110 8
b110 A
b110 M
b110 a
b11111 c
b110 b
b1111111111110011000000110 W
b1111111 F
b10011 G
b111 7
b111 =
b11111111111100110000001100010011 -
b11111111111100110000001100010011 T
b1101100 ,
b1101100 ^
b111 1
b111 C
b111 e
b1101100 )
b1101000 !
b1101000 &
b1101000 *
b1101000 U
b1101000 _
1#
#230000
0#
#235000
b11000 P
b10100 ?
b11111111111111111111111111110100 6
b11111111111111111111111111110100 >
1+
b11111111111111111111111111110100 /
b11111111111111111111111111110100 ]
b1110000 <
b1110000 `
b1100000 "
b1100000 %
b1100000 8
b1100000 A
b1100000 M
b11111111111111111111111111110101 [
b1111111111111111111111111100000 Y
b11111111111111111111011111100000 \
b11111111010111111111000000000000 X
b11111111111111111111111111110100 Z
b10000 5
b10000 D
b10000 I
b110 .
b110 K
b110 V
1;
b10 (
b10 L
1:
1'
b1101100 7
b1101100 =
b0 a
b10101 c
b11111 b
b1111111101011111111100000 W
b111 E
b1101111 G
bx 1
bx C
bx e
b11111111010111111111000001101111 -
b11111111010111111111000001101111 T
b1100000 ,
b1100000 ^
b1110000 )
b1101100 !
b1101100 &
b1101100 *
b1101100 U
b1101100 _
1#
#240000
0#
#245000
b10000 ?
b10000 6
b10000 >
b10000 /
b10000 ]
0+
b11100 P
b0 0
b0 B
b0 Q
b0 d
b110 1
b110 C
b110 e
b0 [
b10000 Y
b10000 \
b110000000000000000 X
b110000000000000000 Z
b1000 5
b1000 D
b1000 I
b101 .
b101 K
b101 V
1:
1;
b0 (
b0 L
0'
b1100100 ,
b1100100 ^
b10000 a
b0 c
b110 b
b11000010000 W
b0 F
b0 E
b1100011 G
b1110000 "
b1110000 %
b1110000 8
b1110000 A
b1110000 M
b110000100001100011 -
b110000100001100011 T
b1110000 <
b1110000 `
b1100000 7
b1100000 =
b1100100 )
b1100000 !
b1100000 &
b1100000 *
b1100000 U
b1100000 _
1#
#250000
0#
#255000
b1 ?
b1010 /
b1010 ]
b1 6
b1 >
b0 P
b1 0
b1 B
b1 Q
b1 d
b10 1
b10 C
b10 e
b1010 [
b101 Y
b100000000100 \
b101000101000000000000000 X
b101000000000001010 Z
1'
b0 5
b0 D
b0 I
b0 .
b0 K
b0 V
0:
0;
b11 <
b11 `
b101 a
b1010 c
b101 b
b10100010100000101 W
b110011 G
b11 "
b11 %
b11 8
b11 A
b11 M
b101000101000001010110011 -
b101000101000001010110011 T
b1101000 ,
b1101000 ^
b10 7
b10 =
b1101000 )
b1100100 !
b1100100 &
b1100100 *
b1100100 U
b1100100 _
1#
#260000
0#
#265000
b11111 ?
b1 P
b11111111111111111111111111111111 /
b11111111111111111111111111111111 ]
b11111111111111111111111111111111 6
b11111111111111111111111111111111 >
b101 <
b101 `
bx 0
bx B
bx Q
bx d
b11111111111111111111111111111111 [
b1111111111111111111111111100110 Y
b11111111111111111111011111100110 \
b11111111111100110000000000000000 X
b11111111111100110000111111111110 Z
1:
1'
b101 "
b101 %
b101 8
b101 A
b101 M
b110 a
b11111 c
b110 b
b1111111111110011000000110 W
b1111111 F
b10011 G
b110 7
b110 =
b11111111111100110000001100010011 -
b11111111111100110000001100010011 T
b1101100 ,
b1101100 ^
b110 1
b110 C
b110 e
b1101100 )
b1101000 !
b1101000 &
b1101000 *
b1101000 U
b1101000 _
1#
#270000
0#
#275000
b11000 P
b10100 ?
b11111111111111111111111111110100 6
b11111111111111111111111111110100 >
1+
b11111111111111111111111111110100 /
b11111111111111111111111111110100 ]
b1110000 <
b1110000 `
b1100000 "
b1100000 %
b1100000 8
b1100000 A
b1100000 M
b11111111111111111111111111110101 [
b1111111111111111111111111100000 Y
b11111111111111111111011111100000 \
b11111111010111111111000000000000 X
b11111111111111111111111111110100 Z
b10000 5
b10000 D
b10000 I
b110 .
b110 K
b110 V
1;
b10 (
b10 L
1:
1'
b1101100 7
b1101100 =
b0 a
b10101 c
b11111 b
b1111111101011111111100000 W
b111 E
b1101111 G
bx 1
bx C
bx e
b11111111010111111111000001101111 -
b11111111010111111111000001101111 T
b1100000 ,
b1100000 ^
b1110000 )
b1101100 !
b1101100 &
b1101100 *
b1101100 U
b1101100 _
1#
#280000
0#
#285000
b10000 ?
b10000 6
b10000 >
b10000 /
b10000 ]
0+
b11100 P
b0 0
b0 B
b0 Q
b0 d
b101 1
b101 C
b101 e
b0 [
b10000 Y
b10000 \
b110000000000000000 X
b110000000000000000 Z
b1000 5
b1000 D
b1000 I
b101 .
b101 K
b101 V
1:
1;
b0 (
b0 L
0'
b1100100 ,
b1100100 ^
b10000 a
b0 c
b110 b
b11000010000 W
b0 F
b0 E
b1100011 G
b1110000 "
b1110000 %
b1110000 8
b1110000 A
b1110000 M
b110000100001100011 -
b110000100001100011 T
b1110000 <
b1110000 `
b1100000 7
b1100000 =
b1100100 )
b1100000 !
b1100000 &
b1100000 *
b1100000 U
b1100000 _
1#
#290000
0#
#295000
b1 ?
b1010 /
b1010 ]
b1 6
b1 >
b1 P
b1 0
b1 B
b1 Q
b1 d
b11 1
b11 C
b11 e
b1010 [
b101 Y
b100000000100 \
b101000101000000000000000 X
b101000000000001010 Z
1'
b0 5
b0 D
b0 I
b0 .
b0 K
b0 V
0:
0;
b100 <
b100 `
b101 a
b1010 c
b101 b
b10100010100000101 W
b110011 G
b100 "
b100 %
b100 8
b100 A
b100 M
b101000101000001010110011 -
b101000101000001010110011 T
b1101000 ,
b1101000 ^
b11 7
b11 =
b1101000 )
b1100100 !
b1100100 &
b1100100 *
b1100100 U
b1100100 _
1#
#300000
0#
#305000
b1 P
b11111 ?
b11111111111111111111111111111111 /
b11111111111111111111111111111111 ]
b11111111111111111111111111111111 6
b11111111111111111111111111111111 >
b100 <
b100 `
bx 0
bx B
bx Q
bx d
b11111111111111111111111111111111 [
b1111111111111111111111111100110 Y
b11111111111111111111011111100110 \
b11111111111100110000000000000000 X
b11111111111100110000111111111110 Z
1:
1'
b100 "
b100 %
b100 8
b100 A
b100 M
b110 a
b11111 c
b110 b
b1111111111110011000000110 W
b1111111 F
b10011 G
b101 7
b101 =
b11111111111100110000001100010011 -
b11111111111100110000001100010011 T
b1101100 ,
b1101100 ^
b101 1
b101 C
b101 e
b1101100 )
b1101000 !
b1101000 &
b1101000 *
b1101000 U
b1101000 _
1#
#310000
0#
#315000
b10100 ?
b11000 P
b11111111111111111111111111110100 6
b11111111111111111111111111110100 >
1+
b11111111111111111111111111110100 /
b11111111111111111111111111110100 ]
b1110000 <
b1110000 `
b1100000 "
b1100000 %
b1100000 8
b1100000 A
b1100000 M
b11111111111111111111111111110101 [
b1111111111111111111111111100000 Y
b11111111111111111111011111100000 \
b11111111010111111111000000000000 X
b11111111111111111111111111110100 Z
b10000 5
b10000 D
b10000 I
b110 .
b110 K
b110 V
1;
b10 (
b10 L
1:
1'
b1101100 7
b1101100 =
b0 a
b10101 c
b11111 b
b1111111101011111111100000 W
b111 E
b1101111 G
bx 1
bx C
bx e
b11111111010111111111000001101111 -
b11111111010111111111000001101111 T
b1100000 ,
b1100000 ^
b1110000 )
b1101100 !
b1101100 &
b1101100 *
b1101100 U
b1101100 _
1#
#320000
0#
#325000
b10000 ?
b10000 6
b10000 >
b10000 /
b10000 ]
0+
b11100 P
b0 0
b0 B
b0 Q
b0 d
b100 1
b100 C
b100 e
b0 [
b10000 Y
b10000 \
b110000000000000000 X
b110000000000000000 Z
b1000 5
b1000 D
b1000 I
b101 .
b101 K
b101 V
1:
1;
b0 (
b0 L
0'
b1100100 ,
b1100100 ^
b10000 a
b0 c
b110 b
b11000010000 W
b0 F
b0 E
b1100011 G
b1110000 "
b1110000 %
b1110000 8
b1110000 A
b1110000 M
b110000100001100011 -
b110000100001100011 T
b1110000 <
b1110000 `
b1100000 7
b1100000 =
b1100100 )
b1100000 !
b1100000 &
b1100000 *
b1100000 U
b1100000 _
1#
#330000
0#
#335000
b1 ?
b1010 /
b1010 ]
b1 6
b1 >
b1 P
b1 0
b1 B
b1 Q
b1 d
b1010 [
b101 Y
b100000000100 \
b101000101000000000000000 X
b101000000000001010 Z
1'
b0 5
b0 D
b0 I
b0 .
b0 K
b0 V
0:
0;
b101 <
b101 `
b101 a
b1010 c
b101 b
b10100010100000101 W
b110011 G
b101 "
b101 %
b101 8
b101 A
b101 M
b101000101000001010110011 -
b101000101000001010110011 T
b1101000 ,
b1101000 ^
b100 7
b100 =
b1101000 )
b1100100 !
b1100100 &
b1100100 *
b1100100 U
b1100100 _
1#
#340000
0#
#345000
b0 P
b11111 ?
b11111111111111111111111111111111 /
b11111111111111111111111111111111 ]
b11111111111111111111111111111111 6
b11111111111111111111111111111111 >
b11 <
b11 `
bx 0
bx B
bx Q
bx d
b11111111111111111111111111111111 [
b1111111111111111111111111100110 Y
b11111111111111111111011111100110 \
b11111111111100110000000000000000 X
b11111111111100110000111111111110 Z
1:
1'
b11 "
b11 %
b11 8
b11 A
b11 M
b110 a
b11111 c
b110 b
b1111111111110011000000110 W
b1111111 F
b10011 G
b100 7
b100 =
b11111111111100110000001100010011 -
b11111111111100110000001100010011 T
b1101100 ,
b1101100 ^
b100 1
b100 C
b100 e
b1101100 )
b1101000 !
b1101000 &
b1101000 *
b1101000 U
b1101000 _
1#
#350000
0#
#355000
b11000 P
b10100 ?
b11111111111111111111111111110100 6
b11111111111111111111111111110100 >
1+
b11111111111111111111111111110100 /
b11111111111111111111111111110100 ]
b1110000 <
b1110000 `
b1100000 "
b1100000 %
b1100000 8
b1100000 A
b1100000 M
b11111111111111111111111111110101 [
b1111111111111111111111111100000 Y
b11111111111111111111011111100000 \
b11111111010111111111000000000000 X
b11111111111111111111111111110100 Z
b10000 5
b10000 D
b10000 I
b110 .
b110 K
b110 V
1;
b10 (
b10 L
1:
1'
b1101100 7
b1101100 =
b0 a
b10101 c
b11111 b
b1111111101011111111100000 W
b111 E
b1101111 G
bx 1
bx C
bx e
b11111111010111111111000001101111 -
b11111111010111111111000001101111 T
b1100000 ,
b1100000 ^
b1110000 )
b1101100 !
b1101100 &
b1101100 *
b1101100 U
b1101100 _
1#
#360000
0#
#365000
b10000 ?
b10000 6
b10000 >
b10000 /
b10000 ]
0+
b11100 P
b0 0
b0 B
b0 Q
b0 d
b11 1
b11 C
b11 e
b0 [
b10000 Y
b10000 \
b110000000000000000 X
b110000000000000000 Z
b1000 5
b1000 D
b1000 I
b101 .
b101 K
b101 V
1:
1;
b0 (
b0 L
0'
b1100100 ,
b1100100 ^
b10000 a
b0 c
b110 b
b11000010000 W
b0 F
b0 E
b1100011 G
b1110000 "
b1110000 %
b1110000 8
b1110000 A
b1110000 M
b110000100001100011 -
b110000100001100011 T
b1110000 <
b1110000 `
b1100000 7
b1100000 =
b1100100 )
b1100000 !
b1100000 &
b1100000 *
b1100000 U
b1100000 _
1#
#370000
0#
#375000
b1 ?
b1010 /
b1010 ]
b1 6
b1 >
b1 P
b1 0
b1 B
b1 Q
b1 d
b101 1
b101 C
b101 e
b1010 [
b101 Y
b100000000100 \
b101000101000000000000000 X
b101000000000001010 Z
1'
b0 5
b0 D
b0 I
b0 .
b0 K
b0 V
0:
0;
b110 <
b110 `
b101 a
b1010 c
b101 b
b10100010100000101 W
b110011 G
b110 "
b110 %
b110 8
b110 A
b110 M
b101000101000001010110011 -
b101000101000001010110011 T
b1101000 ,
b1101000 ^
b101 7
b101 =
b1101000 )
b1100100 !
b1100100 &
b1100100 *
b1100100 U
b1100100 _
1#
#380000
0#
#385000
b0 P
b11111 ?
b11111111111111111111111111111111 /
b11111111111111111111111111111111 ]
b11111111111111111111111111111111 6
b11111111111111111111111111111111 >
b10 <
b10 `
bx 0
bx B
bx Q
bx d
b11111111111111111111111111111111 [
b1111111111111111111111111100110 Y
b11111111111111111111011111100110 \
b11111111111100110000000000000000 X
b11111111111100110000111111111110 Z
1:
1'
b10 "
b10 %
b10 8
b10 A
b10 M
b110 a
b11111 c
b110 b
b1111111111110011000000110 W
b1111111 F
b10011 G
b11 7
b11 =
b11111111111100110000001100010011 -
b11111111111100110000001100010011 T
b1101100 ,
b1101100 ^
b11 1
b11 C
b11 e
b1101100 )
b1101000 !
b1101000 &
b1101000 *
b1101000 U
b1101000 _
1#
#390000
0#
